%YAML 1.1
%TAG !u! tag:unity3d.com,2011:
--- !u!74 &7400000
AnimationClip:
  m_ObjectHideFlags: 0
  m_CorrespondingSourceObject: {fileID: 0}
  m_PrefabInstance: {fileID: 0}
  m_PrefabAsset: {fileID: 0}
  m_Name: MirarAbaix
  serializedVersion: 6
  m_Legacy: 0
  m_Compressed: 0
  m_UseHighQualityCurve: 1
  m_RotationCurves: []
  m_CompressedRotationCurves: []
  m_EulerCurves: []
  m_PositionCurves: []
  m_ScaleCurves: []
  m_FloatCurves: []
  m_PPtrCurves:
  - curve:
    - time: 0
      value: {fileID: 21300000, guid: 41df9bd737659844c9491fa8d27be99c, type: 3}
    - time: 0.13333334
      value: {fileID: 21300000, guid: a61cd47921e9c974a8c21b7a759cccd2, type: 3}
    - time: 0.25
      value: {fileID: 21300000, guid: 6ee86f9b513a6dd40bd88151886f74d8, type: 3}
    - time: 0.36666667
      value: {fileID: 21300000, guid: ff94947506035de4fbf3ccdbaf046b1e, type: 3}
    - time: 0.5
      value: {fileID: 21300000, guid: 43884e0b1f99a474ea9761975705325a, type: 3}
    - time: 0.6166667
      value: {fileID: 21300000, guid: f5120f4bf78cee046bde3695313ccadb, type: 3}
    - time: 0.75
      value: {fileID: 21300000, guid: 7fd1aadc09403574c876d2abc3e86f9a, type: 3}
    - time: 0.9166667
      value: {fileID: 21300000, guid: c3731abc2a625994dafb69798a9304da, type: 3}
    - time: 1.0333333
      value: {fileID: 21300000, guid: 1b436596de3e06d4cb31aa0e8b0fb7dc, type: 3}
    - time: 1.3333334
      value: {fileID: 21300000, guid: c3731abc2a625994dafb69798a9304da, type: 3}
    - time: 1.4666667
      value: {fileID: 21300000, guid: 05335619a6d8ecd49bca59f70049bd49, type: 3}
    - time: 2.0666666
      value: {fileID: 21300000, guid: 05335619a6d8ecd49bca59f70049bd49, type: 3}
    - time: 2.2333333
      value: {fileID: 21300000, guid: d18e59e2476890b49adb26a8afaa5526, type: 3}
    - time: 2.35
      value: {fileID: 21300000, guid: 2b91a8139a056d24aa3cb7433c17ceec, type: 3}
    - time: 2.5
      value: {fileID: 21300000, guid: f56b5fbcebd262943a83b58bc6c00767, type: 3}
    - time: 2.6166666
      value: {fileID: 21300000, guid: 0fd919095b6ddef4ab35df540ffbf063, type: 3}
    - time: 2.75
      value: {fileID: 21300000, guid: f74204978167fc6438af90f3aafadb38, type: 3}
    attribute: m_Sprite
    path: 
    classID: 212
    script: {fileID: 0}
  m_SampleRate: 60
  m_WrapMode: 0
  m_Bounds:
    m_Center: {x: 0, y: 0, z: 0}
    m_Extent: {x: 0, y: 0, z: 0}
  m_ClipBindingConstant:
    genericBindings:
    - serializedVersion: 2
      path: 0
      attribute: 0
      script: {fileID: 0}
      typeID: 212
      customType: 23
      isPPtrCurve: 1
    pptrCurveMapping:
    - {fileID: 21300000, guid: 41df9bd737659844c9491fa8d27be99c, type: 3}
    - {fileID: 21300000, guid: a61cd47921e9c974a8c21b7a759cccd2, type: 3}
    - {fileID: 21300000, guid: 6ee86f9b513a6dd40bd88151886f74d8, type: 3}
    - {fileID: 21300000, guid: ff94947506035de4fbf3ccdbaf046b1e, type: 3}
    - {fileID: 21300000, guid: 43884e0b1f99a474ea9761975705325a, type: 3}
    - {fileID: 21300000, guid: f5120f4bf78cee046bde3695313ccadb, type: 3}
    - {fileID: 21300000, guid: 7fd1aadc09403574c876d2abc3e86f9a, type: 3}
    - {fileID: 21300000, guid: c3731abc2a625994dafb69798a9304da, type: 3}
    - {fileID: 21300000, guid: 1b436596de3e06d4cb31aa0e8b0fb7dc, type: 3}
    - {fileID: 21300000, guid: c3731abc2a625994dafb69798a9304da, type: 3}
    - {fileID: 21300000, guid: 05335619a6d8ecd49bca59f70049bd49, type: 3}
    - {fileID: 21300000, guid: 05335619a6d8ecd49bca59f70049bd49, type: 3}
    - {fileID: 21300000, guid: d18e59e2476890b49adb26a8afaa5526, type: 3}
    - {fileID: 21300000, guid: 2b91a8139a056d24aa3cb7433c17ceec, type: 3}
    - {fileID: 21300000, guid: f56b5fbcebd262943a83b58bc6c00767, type: 3}
    - {fileID: 21300000, guid: 0fd919095b6ddef4ab35df540ffbf063, type: 3}
    - {fileID: 21300000, guid: f74204978167fc6438af90f3aafadb38, type: 3}
  m_AnimationClipSettings:
    serializedVersion: 2
    m_AdditiveReferencePoseClip: {fileID: 0}
    m_AdditiveReferencePoseTime: 0
    m_StartTime: 0
    m_StopTime: 2.7666667
    m_OrientationOffsetY: 0
    m_Level: 0
    m_CycleOffset: 0
    m_HasAdditiveReferencePose: 0
    m_LoopTime: 1
    m_LoopBlend: 0
    m_LoopBlendOrientation: 0
    m_LoopBlendPositionY: 0
    m_LoopBlendPositionXZ: 0
    m_KeepOriginalOrientation: 0
    m_KeepOriginalPositionY: 1
    m_KeepOriginalPositionXZ: 0
    m_HeightFromFeet: 0
    m_Mirror: 0
  m_EditorCurves: []
  m_EulerEditorCurves: []
  m_HasGenericRootTransform: 0
  m_HasMotionFloatCurves: 0
  m_Events: []
