%YAML 1.1
%TAG !u! tag:unity3d.com,2011:
--- !u!74 &7400000
AnimationClip:
  m_ObjectHideFlags: 0
  m_CorrespondingSourceObject: {fileID: 0}
  m_PrefabInstance: {fileID: 0}
  m_PrefabAsset: {fileID: 0}
  m_Name: Run
  serializedVersion: 6
  m_Legacy: 0
  m_Compressed: 0
  m_UseHighQualityCurve: 1
  m_RotationCurves: []
  m_CompressedRotationCurves: []
  m_EulerCurves: []
  m_PositionCurves: []
  m_ScaleCurves: []
  m_FloatCurves: []
  m_PPtrCurves:
  - curve:
    - time: 0.016666668
      value: {fileID: -1186298909, guid: 2cda63f5d48a62643ac97dde6a053fa1, type: 3}
    - time: 0.11666667
      value: {fileID: -711297068, guid: 2cda63f5d48a62643ac97dde6a053fa1, type: 3}
    - time: 0.23333333
      value: {fileID: 514236476, guid: 2cda63f5d48a62643ac97dde6a053fa1, type: 3}
    - time: 0.3
      value: {fileID: -1052808879, guid: 2cda63f5d48a62643ac97dde6a053fa1, type: 3}
    - time: 0.41666666
      value: {fileID: 395195029, guid: 2cda63f5d48a62643ac97dde6a053fa1, type: 3}
    - time: 0.5
      value: {fileID: -1790094048, guid: 2cda63f5d48a62643ac97dde6a053fa1, type: 3}
    - time: 0.6166667
      value: {fileID: -213466083, guid: 2cda63f5d48a62643ac97dde6a053fa1, type: 3}
    - time: 0.68333334
      value: {fileID: -1878094879, guid: 2cda63f5d48a62643ac97dde6a053fa1, type: 3}
    - time: 0.8
      value: {fileID: 1151324904, guid: 2cda63f5d48a62643ac97dde6a053fa1, type: 3}
    - time: 0.9
      value: {fileID: 7883427, guid: 2cda63f5d48a62643ac97dde6a053fa1, type: 3}
    attribute: m_Sprite
    path: 
    classID: 212
    script: {fileID: 0}
  m_SampleRate: 60
  m_WrapMode: 0
  m_Bounds:
    m_Center: {x: 0, y: 0, z: 0}
    m_Extent: {x: 0, y: 0, z: 0}
  m_ClipBindingConstant:
    genericBindings:
    - serializedVersion: 2
      path: 0
      attribute: 0
      script: {fileID: 0}
      typeID: 212
      customType: 23
      isPPtrCurve: 1
    pptrCurveMapping:
    - {fileID: -1186298909, guid: 2cda63f5d48a62643ac97dde6a053fa1, type: 3}
    - {fileID: -711297068, guid: 2cda63f5d48a62643ac97dde6a053fa1, type: 3}
    - {fileID: 514236476, guid: 2cda63f5d48a62643ac97dde6a053fa1, type: 3}
    - {fileID: -1052808879, guid: 2cda63f5d48a62643ac97dde6a053fa1, type: 3}
    - {fileID: 395195029, guid: 2cda63f5d48a62643ac97dde6a053fa1, type: 3}
    - {fileID: -1790094048, guid: 2cda63f5d48a62643ac97dde6a053fa1, type: 3}
    - {fileID: -213466083, guid: 2cda63f5d48a62643ac97dde6a053fa1, type: 3}
    - {fileID: -1878094879, guid: 2cda63f5d48a62643ac97dde6a053fa1, type: 3}
    - {fileID: 1151324904, guid: 2cda63f5d48a62643ac97dde6a053fa1, type: 3}
    - {fileID: 7883427, guid: 2cda63f5d48a62643ac97dde6a053fa1, type: 3}
  m_AnimationClipSettings:
    serializedVersion: 2
    m_AdditiveReferencePoseClip: {fileID: 0}
    m_AdditiveReferencePoseTime: 0
    m_StartTime: 0
    m_StopTime: 0.9166666
    m_OrientationOffsetY: 0
    m_Level: 0
    m_CycleOffset: 0
    m_HasAdditiveReferencePose: 0
    m_LoopTime: 1
    m_LoopBlend: 0
    m_LoopBlendOrientation: 0
    m_LoopBlendPositionY: 0
    m_LoopBlendPositionXZ: 0
    m_KeepOriginalOrientation: 0
    m_KeepOriginalPositionY: 1
    m_KeepOriginalPositionXZ: 0
    m_HeightFromFeet: 0
    m_Mirror: 0
  m_EditorCurves: []
  m_EulerEditorCurves: []
  m_HasGenericRootTransform: 0
  m_HasMotionFloatCurves: 0
  m_Events: []
