%YAML 1.1
%TAG !u! tag:unity3d.com,2011:
--- !u!114 &11400000
MonoBehaviour:
  m_ObjectHideFlags: 0
  m_CorrespondingSourceObject: {fileID: 0}
  m_PrefabInstance: {fileID: 0}
  m_PrefabAsset: {fileID: 0}
  m_GameObject: {fileID: 0}
  m_Enabled: 1
  m_EditorHideFlags: 0
  m_Script: {fileID: 11500000, guid: 5628ed31f599d76468d39d522c5085d0, type: 3}
  m_Name: Morado
  m_EditorClassIdentifier: 
  colorsPinturas: 5
  color: {r: 0.46119922, g: 0.03163936, b: 0.745283, a: 0}
  effect: {fileID: 2839734131342237005, guid: b2cd41ad8892fe8419f6d0e4c4aa5d4f, type: 3}
  duration: 15
