%YAML 1.1
%TAG !u! tag:unity3d.com,2011:
--- !u!114 &11400000
MonoBehaviour:
  m_ObjectHideFlags: 0
  m_CorrespondingSourceObject: {fileID: 0}
  m_PrefabInstance: {fileID: 0}
  m_PrefabAsset: {fileID: 0}
  m_GameObject: {fileID: 0}
  m_Enabled: 1
  m_EditorHideFlags: 0
  m_Script: {fileID: 11500000, guid: 5628ed31f599d76468d39d522c5085d0, type: 3}
  m_Name: Verde
  m_EditorClassIdentifier: 
  colorsPinturas: 7
  color: {r: 0.055980783, g: 0.6981132, b: 0.06573822, a: 0}
  effect: {fileID: 9056573990443390674, guid: b3e3eb0a0dafde54c8a7f699ca79b47f, type: 3}
  duration: 10
