%YAML 1.1
%TAG !u! tag:unity3d.com,2011:
--- !u!74 &7400000
AnimationClip:
  m_ObjectHideFlags: 0
  m_CorrespondingSourceObject: {fileID: 0}
  m_PrefabInstance: {fileID: 0}
  m_PrefabAsset: {fileID: 0}
  m_Name: MaestraPose
  serializedVersion: 6
  m_Legacy: 0
  m_Compressed: 0
  m_UseHighQualityCurve: 1
  m_RotationCurves: []
  m_CompressedRotationCurves: []
  m_EulerCurves: []
  m_PositionCurves: []
  m_ScaleCurves: []
  m_FloatCurves: []
  m_PPtrCurves:
  - curve:
    - time: 0
      value: {fileID: 21300000, guid: 8c7e4a0ec59f47649a2bdb8e9000c4e6, type: 3}
    - time: 0.15
      value: {fileID: 21300000, guid: 084a78806bc2f28468f0ec6c14de0c89, type: 3}
    - time: 0.28333333
      value: {fileID: 21300000, guid: 7cc07891121a8ae4eba74231494dc37d, type: 3}
    - time: 0.35
      value: {fileID: 21300000, guid: 1bd312c1fa174e3418545ddbd7b030d2, type: 3}
    - time: 0.45
      value: {fileID: 21300000, guid: 1bd312c1fa174e3418545ddbd7b030d2, type: 3}
    - time: 1.9833333
      value: {fileID: 21300000, guid: 1bd312c1fa174e3418545ddbd7b030d2, type: 3}
    - time: 2.15
      value: {fileID: 21300000, guid: 7cc07891121a8ae4eba74231494dc37d, type: 3}
    - time: 2.2
      value: {fileID: 21300000, guid: 084a78806bc2f28468f0ec6c14de0c89, type: 3}
    - time: 2.3166666
      value: {fileID: 21300000, guid: 8c7e4a0ec59f47649a2bdb8e9000c4e6, type: 3}
    - time: 2.5
      value: {fileID: 21300000, guid: 8c7e4a0ec59f47649a2bdb8e9000c4e6, type: 3}
    attribute: m_Sprite
    path: 
    classID: 212
    script: {fileID: 0}
  m_SampleRate: 60
  m_WrapMode: 0
  m_Bounds:
    m_Center: {x: 0, y: 0, z: 0}
    m_Extent: {x: 0, y: 0, z: 0}
  m_ClipBindingConstant:
    genericBindings:
    - serializedVersion: 2
      path: 0
      attribute: 0
      script: {fileID: 0}
      typeID: 212
      customType: 23
      isPPtrCurve: 1
    pptrCurveMapping:
    - {fileID: 21300000, guid: 8c7e4a0ec59f47649a2bdb8e9000c4e6, type: 3}
    - {fileID: 21300000, guid: 084a78806bc2f28468f0ec6c14de0c89, type: 3}
    - {fileID: 21300000, guid: 7cc07891121a8ae4eba74231494dc37d, type: 3}
    - {fileID: 21300000, guid: 1bd312c1fa174e3418545ddbd7b030d2, type: 3}
    - {fileID: 21300000, guid: 1bd312c1fa174e3418545ddbd7b030d2, type: 3}
    - {fileID: 21300000, guid: 1bd312c1fa174e3418545ddbd7b030d2, type: 3}
    - {fileID: 21300000, guid: 7cc07891121a8ae4eba74231494dc37d, type: 3}
    - {fileID: 21300000, guid: 084a78806bc2f28468f0ec6c14de0c89, type: 3}
    - {fileID: 21300000, guid: 8c7e4a0ec59f47649a2bdb8e9000c4e6, type: 3}
    - {fileID: 21300000, guid: 8c7e4a0ec59f47649a2bdb8e9000c4e6, type: 3}
  m_AnimationClipSettings:
    serializedVersion: 2
    m_AdditiveReferencePoseClip: {fileID: 0}
    m_AdditiveReferencePoseTime: 0
    m_StartTime: 0
    m_StopTime: 2.5166667
    m_OrientationOffsetY: 0
    m_Level: 0
    m_CycleOffset: 0
    m_HasAdditiveReferencePose: 0
    m_LoopTime: 0
    m_LoopBlend: 0
    m_LoopBlendOrientation: 0
    m_LoopBlendPositionY: 0
    m_LoopBlendPositionXZ: 0
    m_KeepOriginalOrientation: 0
    m_KeepOriginalPositionY: 1
    m_KeepOriginalPositionXZ: 0
    m_HeightFromFeet: 0
    m_Mirror: 0
  m_EditorCurves: []
  m_EulerEditorCurves: []
  m_HasGenericRootTransform: 0
  m_HasMotionFloatCurves: 0
  m_Events:
  - time: 0
    functionName: 
    data: 
    objectReferenceParameter: {fileID: 0}
    floatParameter: 0
    intParameter: 0
    messageOptions: 0
