%YAML 1.1
%TAG !u! tag:unity3d.com,2011:
--- !u!1045 &1
EditorBuildSettings:
  m_ObjectHideFlags: 0
  serializedVersion: 2
  m_Scenes:
  - enabled: 1
    path: Assets/Scenes/MainMenu.unity
    guid: 1cef3c6d8ac036b4394f162a4ebeb67a
  - enabled: 1
    path: Assets/Scenes/Settings.unity
    guid: f8500bfb2d8115d4fad17e253d23fa74
  - enabled: 1
    path: Assets/Scenes/Tutorial.unity
    guid: 80e645b3d6dbde14fa9af97ad17dc0c3
  - enabled: 1
    path: Assets/Scenes/Nivell1.unity
    guid: fdc54ae18bdc22d46adee51689aab914
  - enabled: 0
    path: Assets/Scenes/SampleScene.unity
    guid: 2cda990e2423bbf4892e6590ba056729
  - enabled: 0
    path: Assets/Scenes/TestEric.unity
    guid: 9e864f24f268b9a4084d8b6f65adb862
  - enabled: 0
    path: Assets/Scenes/TestArnau.unity
    guid: 32f4f7927b2d52e4eaf19de0621a8282
  m_configObjects: {}
