%YAML 1.1
%TAG !u! tag:unity3d.com,2011:
--- !u!1 &4385174298159023161
GameObject:
  m_ObjectHideFlags: 0
  m_CorrespondingSourceObject: {fileID: 0}
  m_PrefabInstance: {fileID: 0}
  m_PrefabAsset: {fileID: 0}
  serializedVersion: 6
  m_Component:
  - component: {fileID: 9033036905976924656}
  - component: {fileID: 1271280468630921240}
  m_Layer: 31
  m_Name: Tutorial
  m_TagString: Untagged
  m_Icon: {fileID: 0}
  m_NavMeshLayer: 0
  m_StaticEditorFlags: 0
  m_IsActive: 1
--- !u!4 &9033036905976924656
Transform:
  m_ObjectHideFlags: 0
  m_CorrespondingSourceObject: {fileID: 0}
  m_PrefabInstance: {fileID: 0}
  m_PrefabAsset: {fileID: 0}
  m_GameObject: {fileID: 4385174298159023161}
  m_LocalRotation: {x: 0, y: 0, z: 0, w: 1}
  m_LocalPosition: {x: 0, y: 0, z: 0}
  m_LocalScale: {x: 1, y: 1, z: 1}
  m_ConstrainProportionsScale: 0
  m_Children:
  - {fileID: 6636350343567840577}
  m_Father: {fileID: 0}
  m_RootOrder: 0
  m_LocalEulerAnglesHint: {x: 0, y: 0, z: 0}
--- !u!156049354 &1271280468630921240
Grid:
  m_ObjectHideFlags: 0
  m_CorrespondingSourceObject: {fileID: 0}
  m_PrefabInstance: {fileID: 0}
  m_PrefabAsset: {fileID: 0}
  m_GameObject: {fileID: 4385174298159023161}
  m_Enabled: 1
  m_CellSize: {x: 1, y: 1, z: 0}
  m_CellGap: {x: 0, y: 0, z: 0}
  m_CellLayout: 0
  m_CellSwizzle: 0
--- !u!1 &7314428071861941466
GameObject:
  m_ObjectHideFlags: 0
  m_CorrespondingSourceObject: {fileID: 0}
  m_PrefabInstance: {fileID: 0}
  m_PrefabAsset: {fileID: 0}
  serializedVersion: 6
  m_Component:
  - component: {fileID: 6636350343567840577}
  - component: {fileID: 8402752048145266458}
  - component: {fileID: 4685082894818871917}
  m_Layer: 0
  m_Name: Layer1
  m_TagString: Untagged
  m_Icon: {fileID: 0}
  m_NavMeshLayer: 0
  m_StaticEditorFlags: 0
  m_IsActive: 1
--- !u!4 &6636350343567840577
Transform:
  m_ObjectHideFlags: 0
  m_CorrespondingSourceObject: {fileID: 0}
  m_PrefabInstance: {fileID: 0}
  m_PrefabAsset: {fileID: 0}
  m_GameObject: {fileID: 7314428071861941466}
  m_LocalRotation: {x: -0, y: -0, z: -0, w: 1}
  m_LocalPosition: {x: 0, y: 0, z: 0}
  m_LocalScale: {x: 1, y: 1, z: 1}
  m_ConstrainProportionsScale: 0
  m_Children: []
  m_Father: {fileID: 9033036905976924656}
  m_RootOrder: 0
  m_LocalEulerAnglesHint: {x: 0, y: 0, z: 0}
--- !u!1839735485 &8402752048145266458
Tilemap:
  m_ObjectHideFlags: 0
  m_CorrespondingSourceObject: {fileID: 0}
  m_PrefabInstance: {fileID: 0}
  m_PrefabAsset: {fileID: 0}
  m_GameObject: {fileID: 7314428071861941466}
  m_Enabled: 1
  m_Tiles:
  - first: {x: -9, y: 1, z: 0}
    second:
      serializedVersion: 2
      m_TileIndex: 140
      m_TileSpriteIndex: 138
      m_TileMatrixIndex: 0
      m_TileColorIndex: 1
      m_TileObjectToInstantiateIndex: 65535
      dummyAlignment: 0
      m_AllTileFlags: 1073741825
  - first: {x: -10, y: 3, z: 0}
    second:
      serializedVersion: 2
      m_TileIndex: 3
      m_TileSpriteIndex: 128
      m_TileMatrixIndex: 0
      m_TileColorIndex: 1
      m_TileObjectToInstantiateIndex: 65535
      dummyAlignment: 0
      m_AllTileFlags: 1073741826
  - first: {x: -9, y: 3, z: 0}
    second:
      serializedVersion: 2
      m_TileIndex: 139
      m_TileSpriteIndex: 138
      m_TileMatrixIndex: 1
      m_TileColorIndex: 1
      m_TileObjectToInstantiateIndex: 65535
      dummyAlignment: 0
      m_AllTileFlags: 1073741825
  - first: {x: -8, y: 3, z: 0}
    second:
      serializedVersion: 2
      m_TileIndex: 138
      m_TileSpriteIndex: 137
      m_TileMatrixIndex: 0
      m_TileColorIndex: 1
      m_TileObjectToInstantiateIndex: 65535
      dummyAlignment: 0
      m_AllTileFlags: 1073741825
  - first: {x: -7, y: 3, z: 0}
    second:
      serializedVersion: 2
      m_TileIndex: 137
      m_TileSpriteIndex: 136
      m_TileMatrixIndex: 0
      m_TileColorIndex: 1
      m_TileObjectToInstantiateIndex: 65535
      dummyAlignment: 0
      m_AllTileFlags: 1073741825
  - first: {x: -6, y: 3, z: 0}
    second:
      serializedVersion: 2
      m_TileIndex: 136
      m_TileSpriteIndex: 135
      m_TileMatrixIndex: 0
      m_TileColorIndex: 1
      m_TileObjectToInstantiateIndex: 65535
      dummyAlignment: 0
      m_AllTileFlags: 1073741825
  - first: {x: -5, y: 3, z: 0}
    second:
      serializedVersion: 2
      m_TileIndex: 135
      m_TileSpriteIndex: 134
      m_TileMatrixIndex: 0
      m_TileColorIndex: 1
      m_TileObjectToInstantiateIndex: 65535
      dummyAlignment: 0
      m_AllTileFlags: 1073741825
  - first: {x: -4, y: 3, z: 0}
    second:
      serializedVersion: 2
      m_TileIndex: 134
      m_TileSpriteIndex: 133
      m_TileMatrixIndex: 0
      m_TileColorIndex: 1
      m_TileObjectToInstantiateIndex: 65535
      dummyAlignment: 0
      m_AllTileFlags: 1073741825
  - first: {x: -3, y: 3, z: 0}
    second:
      serializedVersion: 2
      m_TileIndex: 133
      m_TileSpriteIndex: 132
      m_TileMatrixIndex: 0
      m_TileColorIndex: 1
      m_TileObjectToInstantiateIndex: 65535
      dummyAlignment: 0
      m_AllTileFlags: 1073741825
  - first: {x: -2, y: 3, z: 0}
    second:
      serializedVersion: 2
      m_TileIndex: 132
      m_TileSpriteIndex: 131
      m_TileMatrixIndex: 0
      m_TileColorIndex: 1
      m_TileObjectToInstantiateIndex: 65535
      dummyAlignment: 0
      m_AllTileFlags: 1073741825
  - first: {x: -1, y: 3, z: 0}
    second:
      serializedVersion: 2
      m_TileIndex: 131
      m_TileSpriteIndex: 130
      m_TileMatrixIndex: 0
      m_TileColorIndex: 1
      m_TileObjectToInstantiateIndex: 65535
      dummyAlignment: 0
      m_AllTileFlags: 1073741825
  - first: {x: 0, y: 3, z: 0}
    second:
      serializedVersion: 2
      m_TileIndex: 130
      m_TileSpriteIndex: 129
      m_TileMatrixIndex: 0
      m_TileColorIndex: 1
      m_TileObjectToInstantiateIndex: 65535
      dummyAlignment: 0
      m_AllTileFlags: 1073741825
  - first: {x: -9, y: 4, z: 0}
    second:
      serializedVersion: 2
      m_TileIndex: 129
      m_TileSpriteIndex: 128
      m_TileMatrixIndex: 0
      m_TileColorIndex: 1
      m_TileObjectToInstantiateIndex: 65535
      dummyAlignment: 0
      m_AllTileFlags: 1073741825
  - first: {x: -8, y: 4, z: 0}
    second:
      serializedVersion: 2
      m_TileIndex: 128
      m_TileSpriteIndex: 127
      m_TileMatrixIndex: 0
      m_TileColorIndex: 1
      m_TileObjectToInstantiateIndex: 65535
      dummyAlignment: 0
      m_AllTileFlags: 1073741825
  - first: {x: -7, y: 4, z: 0}
    second:
      serializedVersion: 2
      m_TileIndex: 127
      m_TileSpriteIndex: 126
      m_TileMatrixIndex: 0
      m_TileColorIndex: 1
      m_TileObjectToInstantiateIndex: 65535
      dummyAlignment: 0
      m_AllTileFlags: 1073741825
  - first: {x: -6, y: 4, z: 0}
    second:
      serializedVersion: 2
      m_TileIndex: 126
      m_TileSpriteIndex: 125
      m_TileMatrixIndex: 0
      m_TileColorIndex: 1
      m_TileObjectToInstantiateIndex: 65535
      dummyAlignment: 0
      m_AllTileFlags: 1073741825
  - first: {x: -5, y: 4, z: 0}
    second:
      serializedVersion: 2
      m_TileIndex: 125
      m_TileSpriteIndex: 124
      m_TileMatrixIndex: 0
      m_TileColorIndex: 1
      m_TileObjectToInstantiateIndex: 65535
      dummyAlignment: 0
      m_AllTileFlags: 1073741825
  - first: {x: -4, y: 4, z: 0}
    second:
      serializedVersion: 2
      m_TileIndex: 124
      m_TileSpriteIndex: 123
      m_TileMatrixIndex: 0
      m_TileColorIndex: 1
      m_TileObjectToInstantiateIndex: 65535
      dummyAlignment: 0
      m_AllTileFlags: 1073741825
  - first: {x: -3, y: 4, z: 0}
    second:
      serializedVersion: 2
      m_TileIndex: 123
      m_TileSpriteIndex: 122
      m_TileMatrixIndex: 0
      m_TileColorIndex: 1
      m_TileObjectToInstantiateIndex: 65535
      dummyAlignment: 0
      m_AllTileFlags: 1073741825
  - first: {x: -2, y: 4, z: 0}
    second:
      serializedVersion: 2
      m_TileIndex: 122
      m_TileSpriteIndex: 121
      m_TileMatrixIndex: 0
      m_TileColorIndex: 1
      m_TileObjectToInstantiateIndex: 65535
      dummyAlignment: 0
      m_AllTileFlags: 1073741825
  - first: {x: -1, y: 4, z: 0}
    second:
      serializedVersion: 2
      m_TileIndex: 121
      m_TileSpriteIndex: 120
      m_TileMatrixIndex: 0
      m_TileColorIndex: 1
      m_TileObjectToInstantiateIndex: 65535
      dummyAlignment: 0
      m_AllTileFlags: 1073741825
  - first: {x: 0, y: 4, z: 0}
    second:
      serializedVersion: 2
      m_TileIndex: 120
      m_TileSpriteIndex: 119
      m_TileMatrixIndex: 0
      m_TileColorIndex: 1
      m_TileObjectToInstantiateIndex: 65535
      dummyAlignment: 0
      m_AllTileFlags: 1073741825
  - first: {x: 1, y: 4, z: 0}
    second:
      serializedVersion: 2
      m_TileIndex: 119
      m_TileSpriteIndex: 118
      m_TileMatrixIndex: 0
      m_TileColorIndex: 1
      m_TileObjectToInstantiateIndex: 65535
      dummyAlignment: 0
      m_AllTileFlags: 1073741825
  - first: {x: 2, y: 4, z: 0}
    second:
      serializedVersion: 2
      m_TileIndex: 118
      m_TileSpriteIndex: 117
      m_TileMatrixIndex: 0
      m_TileColorIndex: 1
      m_TileObjectToInstantiateIndex: 65535
      dummyAlignment: 0
      m_AllTileFlags: 1073741825
  - first: {x: 3, y: 4, z: 0}
    second:
      serializedVersion: 2
      m_TileIndex: 117
      m_TileSpriteIndex: 116
      m_TileMatrixIndex: 0
      m_TileColorIndex: 1
      m_TileObjectToInstantiateIndex: 65535
      dummyAlignment: 0
      m_AllTileFlags: 1073741825
  - first: {x: 4, y: 4, z: 0}
    second:
      serializedVersion: 2
      m_TileIndex: 116
      m_TileSpriteIndex: 115
      m_TileMatrixIndex: 0
      m_TileColorIndex: 1
      m_TileObjectToInstantiateIndex: 65535
      dummyAlignment: 0
      m_AllTileFlags: 1073741825
  - first: {x: 5, y: 4, z: 0}
    second:
      serializedVersion: 2
      m_TileIndex: 115
      m_TileSpriteIndex: 114
      m_TileMatrixIndex: 0
      m_TileColorIndex: 1
      m_TileObjectToInstantiateIndex: 65535
      dummyAlignment: 0
      m_AllTileFlags: 1073741825
  - first: {x: 6, y: 4, z: 0}
    second:
      serializedVersion: 2
      m_TileIndex: 114
      m_TileSpriteIndex: 113
      m_TileMatrixIndex: 0
      m_TileColorIndex: 1
      m_TileObjectToInstantiateIndex: 65535
      dummyAlignment: 0
      m_AllTileFlags: 1073741825
  - first: {x: 7, y: 4, z: 0}
    second:
      serializedVersion: 2
      m_TileIndex: 113
      m_TileSpriteIndex: 112
      m_TileMatrixIndex: 0
      m_TileColorIndex: 1
      m_TileObjectToInstantiateIndex: 65535
      dummyAlignment: 0
      m_AllTileFlags: 1073741825
  - first: {x: 8, y: 4, z: 0}
    second:
      serializedVersion: 2
      m_TileIndex: 112
      m_TileSpriteIndex: 111
      m_TileMatrixIndex: 0
      m_TileColorIndex: 1
      m_TileObjectToInstantiateIndex: 65535
      dummyAlignment: 0
      m_AllTileFlags: 1073741825
  - first: {x: -9, y: 5, z: 0}
    second:
      serializedVersion: 2
      m_TileIndex: 111
      m_TileSpriteIndex: 110
      m_TileMatrixIndex: 0
      m_TileColorIndex: 1
      m_TileObjectToInstantiateIndex: 65535
      dummyAlignment: 0
      m_AllTileFlags: 1073741825
  - first: {x: -8, y: 5, z: 0}
    second:
      serializedVersion: 2
      m_TileIndex: 110
      m_TileSpriteIndex: 109
      m_TileMatrixIndex: 0
      m_TileColorIndex: 1
      m_TileObjectToInstantiateIndex: 65535
      dummyAlignment: 0
      m_AllTileFlags: 1073741825
  - first: {x: -7, y: 5, z: 0}
    second:
      serializedVersion: 2
      m_TileIndex: 109
      m_TileSpriteIndex: 108
      m_TileMatrixIndex: 0
      m_TileColorIndex: 1
      m_TileObjectToInstantiateIndex: 65535
      dummyAlignment: 0
      m_AllTileFlags: 1073741825
  - first: {x: -6, y: 5, z: 0}
    second:
      serializedVersion: 2
      m_TileIndex: 108
      m_TileSpriteIndex: 107
      m_TileMatrixIndex: 0
      m_TileColorIndex: 1
      m_TileObjectToInstantiateIndex: 65535
      dummyAlignment: 0
      m_AllTileFlags: 1073741825
  - first: {x: -5, y: 5, z: 0}
    second:
      serializedVersion: 2
      m_TileIndex: 107
      m_TileSpriteIndex: 106
      m_TileMatrixIndex: 0
      m_TileColorIndex: 1
      m_TileObjectToInstantiateIndex: 65535
      dummyAlignment: 0
      m_AllTileFlags: 1073741825
  - first: {x: -4, y: 5, z: 0}
    second:
      serializedVersion: 2
      m_TileIndex: 106
      m_TileSpriteIndex: 105
      m_TileMatrixIndex: 0
      m_TileColorIndex: 1
      m_TileObjectToInstantiateIndex: 65535
      dummyAlignment: 0
      m_AllTileFlags: 1073741825
  - first: {x: -3, y: 5, z: 0}
    second:
      serializedVersion: 2
      m_TileIndex: 105
      m_TileSpriteIndex: 104
      m_TileMatrixIndex: 0
      m_TileColorIndex: 1
      m_TileObjectToInstantiateIndex: 65535
      dummyAlignment: 0
      m_AllTileFlags: 1073741825
  - first: {x: -2, y: 5, z: 0}
    second:
      serializedVersion: 2
      m_TileIndex: 104
      m_TileSpriteIndex: 103
      m_TileMatrixIndex: 0
      m_TileColorIndex: 1
      m_TileObjectToInstantiateIndex: 65535
      dummyAlignment: 0
      m_AllTileFlags: 1073741825
  - first: {x: -1, y: 5, z: 0}
    second:
      serializedVersion: 2
      m_TileIndex: 103
      m_TileSpriteIndex: 102
      m_TileMatrixIndex: 0
      m_TileColorIndex: 1
      m_TileObjectToInstantiateIndex: 65535
      dummyAlignment: 0
      m_AllTileFlags: 1073741825
  - first: {x: 0, y: 5, z: 0}
    second:
      serializedVersion: 2
      m_TileIndex: 102
      m_TileSpriteIndex: 101
      m_TileMatrixIndex: 0
      m_TileColorIndex: 1
      m_TileObjectToInstantiateIndex: 65535
      dummyAlignment: 0
      m_AllTileFlags: 1073741825
  - first: {x: 1, y: 5, z: 0}
    second:
      serializedVersion: 2
      m_TileIndex: 101
      m_TileSpriteIndex: 100
      m_TileMatrixIndex: 0
      m_TileColorIndex: 1
      m_TileObjectToInstantiateIndex: 65535
      dummyAlignment: 0
      m_AllTileFlags: 1073741825
  - first: {x: 2, y: 5, z: 0}
    second:
      serializedVersion: 2
      m_TileIndex: 100
      m_TileSpriteIndex: 99
      m_TileMatrixIndex: 0
      m_TileColorIndex: 1
      m_TileObjectToInstantiateIndex: 65535
      dummyAlignment: 0
      m_AllTileFlags: 1073741825
  - first: {x: 3, y: 5, z: 0}
    second:
      serializedVersion: 2
      m_TileIndex: 99
      m_TileSpriteIndex: 98
      m_TileMatrixIndex: 0
      m_TileColorIndex: 1
      m_TileObjectToInstantiateIndex: 65535
      dummyAlignment: 0
      m_AllTileFlags: 1073741825
  - first: {x: 4, y: 5, z: 0}
    second:
      serializedVersion: 2
      m_TileIndex: 98
      m_TileSpriteIndex: 97
      m_TileMatrixIndex: 0
      m_TileColorIndex: 1
      m_TileObjectToInstantiateIndex: 65535
      dummyAlignment: 0
      m_AllTileFlags: 1073741825
  - first: {x: 5, y: 5, z: 0}
    second:
      serializedVersion: 2
      m_TileIndex: 97
      m_TileSpriteIndex: 96
      m_TileMatrixIndex: 0
      m_TileColorIndex: 1
      m_TileObjectToInstantiateIndex: 65535
      dummyAlignment: 0
      m_AllTileFlags: 1073741825
  - first: {x: 6, y: 5, z: 0}
    second:
      serializedVersion: 2
      m_TileIndex: 96
      m_TileSpriteIndex: 95
      m_TileMatrixIndex: 0
      m_TileColorIndex: 1
      m_TileObjectToInstantiateIndex: 65535
      dummyAlignment: 0
      m_AllTileFlags: 1073741825
  - first: {x: 7, y: 5, z: 0}
    second:
      serializedVersion: 2
      m_TileIndex: 95
      m_TileSpriteIndex: 94
      m_TileMatrixIndex: 0
      m_TileColorIndex: 1
      m_TileObjectToInstantiateIndex: 65535
      dummyAlignment: 0
      m_AllTileFlags: 1073741825
  - first: {x: 8, y: 5, z: 0}
    second:
      serializedVersion: 2
      m_TileIndex: 94
      m_TileSpriteIndex: 93
      m_TileMatrixIndex: 0
      m_TileColorIndex: 1
      m_TileObjectToInstantiateIndex: 65535
      dummyAlignment: 0
      m_AllTileFlags: 1073741825
  - first: {x: -9, y: 6, z: 0}
    second:
      serializedVersion: 2
      m_TileIndex: 93
      m_TileSpriteIndex: 92
      m_TileMatrixIndex: 0
      m_TileColorIndex: 1
      m_TileObjectToInstantiateIndex: 65535
      dummyAlignment: 0
      m_AllTileFlags: 1073741825
  - first: {x: -8, y: 6, z: 0}
    second:
      serializedVersion: 2
      m_TileIndex: 92
      m_TileSpriteIndex: 91
      m_TileMatrixIndex: 0
      m_TileColorIndex: 1
      m_TileObjectToInstantiateIndex: 65535
      dummyAlignment: 0
      m_AllTileFlags: 1073741825
  - first: {x: -7, y: 6, z: 0}
    second:
      serializedVersion: 2
      m_TileIndex: 91
      m_TileSpriteIndex: 90
      m_TileMatrixIndex: 0
      m_TileColorIndex: 1
      m_TileObjectToInstantiateIndex: 65535
      dummyAlignment: 0
      m_AllTileFlags: 1073741825
  - first: {x: -6, y: 6, z: 0}
    second:
      serializedVersion: 2
      m_TileIndex: 90
      m_TileSpriteIndex: 89
      m_TileMatrixIndex: 0
      m_TileColorIndex: 1
      m_TileObjectToInstantiateIndex: 65535
      dummyAlignment: 0
      m_AllTileFlags: 1073741825
  - first: {x: -3, y: 6, z: 0}
    second:
      serializedVersion: 2
      m_TileIndex: 89
      m_TileSpriteIndex: 88
      m_TileMatrixIndex: 0
      m_TileColorIndex: 1
      m_TileObjectToInstantiateIndex: 65535
      dummyAlignment: 0
      m_AllTileFlags: 1073741825
  - first: {x: -2, y: 6, z: 0}
    second:
      serializedVersion: 2
      m_TileIndex: 88
      m_TileSpriteIndex: 87
      m_TileMatrixIndex: 0
      m_TileColorIndex: 1
      m_TileObjectToInstantiateIndex: 65535
      dummyAlignment: 0
      m_AllTileFlags: 1073741825
  - first: {x: 0, y: 6, z: 0}
    second:
      serializedVersion: 2
      m_TileIndex: 87
      m_TileSpriteIndex: 86
      m_TileMatrixIndex: 0
      m_TileColorIndex: 1
      m_TileObjectToInstantiateIndex: 65535
      dummyAlignment: 0
      m_AllTileFlags: 1073741825
  - first: {x: 4, y: 6, z: 0}
    second:
      serializedVersion: 2
      m_TileIndex: 86
      m_TileSpriteIndex: 85
      m_TileMatrixIndex: 0
      m_TileColorIndex: 1
      m_TileObjectToInstantiateIndex: 65535
      dummyAlignment: 0
      m_AllTileFlags: 1073741825
  - first: {x: 5, y: 6, z: 0}
    second:
      serializedVersion: 2
      m_TileIndex: 85
      m_TileSpriteIndex: 84
      m_TileMatrixIndex: 0
      m_TileColorIndex: 1
      m_TileObjectToInstantiateIndex: 65535
      dummyAlignment: 0
      m_AllTileFlags: 1073741825
  - first: {x: 6, y: 6, z: 0}
    second:
      serializedVersion: 2
      m_TileIndex: 84
      m_TileSpriteIndex: 83
      m_TileMatrixIndex: 0
      m_TileColorIndex: 1
      m_TileObjectToInstantiateIndex: 65535
      dummyAlignment: 0
      m_AllTileFlags: 1073741825
  - first: {x: -9, y: 7, z: 0}
    second:
      serializedVersion: 2
      m_TileIndex: 83
      m_TileSpriteIndex: 82
      m_TileMatrixIndex: 0
      m_TileColorIndex: 1
      m_TileObjectToInstantiateIndex: 65535
      dummyAlignment: 0
      m_AllTileFlags: 1073741825
  - first: {x: -8, y: 7, z: 0}
    second:
      serializedVersion: 2
      m_TileIndex: 82
      m_TileSpriteIndex: 81
      m_TileMatrixIndex: 0
      m_TileColorIndex: 1
      m_TileObjectToInstantiateIndex: 65535
      dummyAlignment: 0
      m_AllTileFlags: 1073741825
  - first: {x: -7, y: 7, z: 0}
    second:
      serializedVersion: 2
      m_TileIndex: 81
      m_TileSpriteIndex: 80
      m_TileMatrixIndex: 0
      m_TileColorIndex: 1
      m_TileObjectToInstantiateIndex: 65535
      dummyAlignment: 0
      m_AllTileFlags: 1073741825
  - first: {x: -6, y: 7, z: 0}
    second:
      serializedVersion: 2
      m_TileIndex: 80
      m_TileSpriteIndex: 79
      m_TileMatrixIndex: 0
      m_TileColorIndex: 1
      m_TileObjectToInstantiateIndex: 65535
      dummyAlignment: 0
      m_AllTileFlags: 1073741825
  - first: {x: -5, y: 7, z: 0}
    second:
      serializedVersion: 2
      m_TileIndex: 79
      m_TileSpriteIndex: 78
      m_TileMatrixIndex: 0
      m_TileColorIndex: 1
      m_TileObjectToInstantiateIndex: 65535
      dummyAlignment: 0
      m_AllTileFlags: 1073741825
  - first: {x: -4, y: 7, z: 0}
    second:
      serializedVersion: 2
      m_TileIndex: 78
      m_TileSpriteIndex: 77
      m_TileMatrixIndex: 0
      m_TileColorIndex: 1
      m_TileObjectToInstantiateIndex: 65535
      dummyAlignment: 0
      m_AllTileFlags: 1073741825
  - first: {x: -3, y: 7, z: 0}
    second:
      serializedVersion: 2
      m_TileIndex: 77
      m_TileSpriteIndex: 76
      m_TileMatrixIndex: 0
      m_TileColorIndex: 1
      m_TileObjectToInstantiateIndex: 65535
      dummyAlignment: 0
      m_AllTileFlags: 1073741825
  - first: {x: -2, y: 7, z: 0}
    second:
      serializedVersion: 2
      m_TileIndex: 76
      m_TileSpriteIndex: 75
      m_TileMatrixIndex: 0
      m_TileColorIndex: 1
      m_TileObjectToInstantiateIndex: 65535
      dummyAlignment: 0
      m_AllTileFlags: 1073741825
  - first: {x: -1, y: 7, z: 0}
    second:
      serializedVersion: 2
      m_TileIndex: 75
      m_TileSpriteIndex: 74
      m_TileMatrixIndex: 0
      m_TileColorIndex: 1
      m_TileObjectToInstantiateIndex: 65535
      dummyAlignment: 0
      m_AllTileFlags: 1073741825
  - first: {x: 0, y: 7, z: 0}
    second:
      serializedVersion: 2
      m_TileIndex: 74
      m_TileSpriteIndex: 73
      m_TileMatrixIndex: 0
      m_TileColorIndex: 1
      m_TileObjectToInstantiateIndex: 65535
      dummyAlignment: 0
      m_AllTileFlags: 1073741825
  - first: {x: 3, y: 7, z: 0}
    second:
      serializedVersion: 2
      m_TileIndex: 73
      m_TileSpriteIndex: 72
      m_TileMatrixIndex: 0
      m_TileColorIndex: 1
      m_TileObjectToInstantiateIndex: 65535
      dummyAlignment: 0
      m_AllTileFlags: 1073741825
  - first: {x: 4, y: 7, z: 0}
    second:
      serializedVersion: 2
      m_TileIndex: 72
      m_TileSpriteIndex: 71
      m_TileMatrixIndex: 0
      m_TileColorIndex: 1
      m_TileObjectToInstantiateIndex: 65535
      dummyAlignment: 0
      m_AllTileFlags: 1073741825
  - first: {x: 5, y: 7, z: 0}
    second:
      serializedVersion: 2
      m_TileIndex: 71
      m_TileSpriteIndex: 70
      m_TileMatrixIndex: 0
      m_TileColorIndex: 1
      m_TileObjectToInstantiateIndex: 65535
      dummyAlignment: 0
      m_AllTileFlags: 1073741825
  - first: {x: 6, y: 7, z: 0}
    second:
      serializedVersion: 2
      m_TileIndex: 70
      m_TileSpriteIndex: 69
      m_TileMatrixIndex: 0
      m_TileColorIndex: 1
      m_TileObjectToInstantiateIndex: 65535
      dummyAlignment: 0
      m_AllTileFlags: 1073741825
  - first: {x: 7, y: 7, z: 0}
    second:
      serializedVersion: 2
      m_TileIndex: 69
      m_TileSpriteIndex: 68
      m_TileMatrixIndex: 0
      m_TileColorIndex: 1
      m_TileObjectToInstantiateIndex: 65535
      dummyAlignment: 0
      m_AllTileFlags: 1073741825
  - first: {x: -9, y: 8, z: 0}
    second:
      serializedVersion: 2
      m_TileIndex: 68
      m_TileSpriteIndex: 67
      m_TileMatrixIndex: 0
      m_TileColorIndex: 1
      m_TileObjectToInstantiateIndex: 65535
      dummyAlignment: 0
      m_AllTileFlags: 1073741825
  - first: {x: -8, y: 8, z: 0}
    second:
      serializedVersion: 2
      m_TileIndex: 67
      m_TileSpriteIndex: 66
      m_TileMatrixIndex: 0
      m_TileColorIndex: 1
      m_TileObjectToInstantiateIndex: 65535
      dummyAlignment: 0
      m_AllTileFlags: 1073741825
  - first: {x: -7, y: 8, z: 0}
    second:
      serializedVersion: 2
      m_TileIndex: 66
      m_TileSpriteIndex: 65
      m_TileMatrixIndex: 0
      m_TileColorIndex: 1
      m_TileObjectToInstantiateIndex: 65535
      dummyAlignment: 0
      m_AllTileFlags: 1073741825
  - first: {x: -6, y: 8, z: 0}
    second:
      serializedVersion: 2
      m_TileIndex: 65
      m_TileSpriteIndex: 64
      m_TileMatrixIndex: 0
      m_TileColorIndex: 1
      m_TileObjectToInstantiateIndex: 65535
      dummyAlignment: 0
      m_AllTileFlags: 1073741825
  - first: {x: -5, y: 8, z: 0}
    second:
      serializedVersion: 2
      m_TileIndex: 64
      m_TileSpriteIndex: 63
      m_TileMatrixIndex: 0
      m_TileColorIndex: 1
      m_TileObjectToInstantiateIndex: 65535
      dummyAlignment: 0
      m_AllTileFlags: 1073741825
  - first: {x: -4, y: 8, z: 0}
    second:
      serializedVersion: 2
      m_TileIndex: 63
      m_TileSpriteIndex: 62
      m_TileMatrixIndex: 0
      m_TileColorIndex: 1
      m_TileObjectToInstantiateIndex: 65535
      dummyAlignment: 0
      m_AllTileFlags: 1073741825
  - first: {x: -3, y: 8, z: 0}
    second:
      serializedVersion: 2
      m_TileIndex: 62
      m_TileSpriteIndex: 61
      m_TileMatrixIndex: 0
      m_TileColorIndex: 1
      m_TileObjectToInstantiateIndex: 65535
      dummyAlignment: 0
      m_AllTileFlags: 1073741825
  - first: {x: -2, y: 8, z: 0}
    second:
      serializedVersion: 2
      m_TileIndex: 61
      m_TileSpriteIndex: 60
      m_TileMatrixIndex: 0
      m_TileColorIndex: 1
      m_TileObjectToInstantiateIndex: 65535
      dummyAlignment: 0
      m_AllTileFlags: 1073741825
  - first: {x: -1, y: 8, z: 0}
    second:
      serializedVersion: 2
      m_TileIndex: 60
      m_TileSpriteIndex: 59
      m_TileMatrixIndex: 0
      m_TileColorIndex: 1
      m_TileObjectToInstantiateIndex: 65535
      dummyAlignment: 0
      m_AllTileFlags: 1073741825
  - first: {x: 0, y: 8, z: 0}
    second:
      serializedVersion: 2
      m_TileIndex: 59
      m_TileSpriteIndex: 58
      m_TileMatrixIndex: 0
      m_TileColorIndex: 1
      m_TileObjectToInstantiateIndex: 65535
      dummyAlignment: 0
      m_AllTileFlags: 1073741825
  - first: {x: 3, y: 8, z: 0}
    second:
      serializedVersion: 2
      m_TileIndex: 58
      m_TileSpriteIndex: 57
      m_TileMatrixIndex: 0
      m_TileColorIndex: 1
      m_TileObjectToInstantiateIndex: 65535
      dummyAlignment: 0
      m_AllTileFlags: 1073741825
  - first: {x: 4, y: 8, z: 0}
    second:
      serializedVersion: 2
      m_TileIndex: 57
      m_TileSpriteIndex: 56
      m_TileMatrixIndex: 0
      m_TileColorIndex: 1
      m_TileObjectToInstantiateIndex: 65535
      dummyAlignment: 0
      m_AllTileFlags: 1073741825
  - first: {x: 5, y: 8, z: 0}
    second:
      serializedVersion: 2
      m_TileIndex: 56
      m_TileSpriteIndex: 55
      m_TileMatrixIndex: 0
      m_TileColorIndex: 1
      m_TileObjectToInstantiateIndex: 65535
      dummyAlignment: 0
      m_AllTileFlags: 1073741825
  - first: {x: 6, y: 8, z: 0}
    second:
      serializedVersion: 2
      m_TileIndex: 55
      m_TileSpriteIndex: 54
      m_TileMatrixIndex: 0
      m_TileColorIndex: 1
      m_TileObjectToInstantiateIndex: 65535
      dummyAlignment: 0
      m_AllTileFlags: 1073741825
  - first: {x: 7, y: 8, z: 0}
    second:
      serializedVersion: 2
      m_TileIndex: 54
      m_TileSpriteIndex: 53
      m_TileMatrixIndex: 0
      m_TileColorIndex: 1
      m_TileObjectToInstantiateIndex: 65535
      dummyAlignment: 0
      m_AllTileFlags: 1073741825
  - first: {x: -9, y: 9, z: 0}
    second:
      serializedVersion: 2
      m_TileIndex: 53
      m_TileSpriteIndex: 52
      m_TileMatrixIndex: 0
      m_TileColorIndex: 1
      m_TileObjectToInstantiateIndex: 65535
      dummyAlignment: 0
      m_AllTileFlags: 1073741825
  - first: {x: -8, y: 9, z: 0}
    second:
      serializedVersion: 2
      m_TileIndex: 52
      m_TileSpriteIndex: 51
      m_TileMatrixIndex: 0
      m_TileColorIndex: 1
      m_TileObjectToInstantiateIndex: 65535
      dummyAlignment: 0
      m_AllTileFlags: 1073741825
  - first: {x: -7, y: 9, z: 0}
    second:
      serializedVersion: 2
      m_TileIndex: 51
      m_TileSpriteIndex: 50
      m_TileMatrixIndex: 0
      m_TileColorIndex: 1
      m_TileObjectToInstantiateIndex: 65535
      dummyAlignment: 0
      m_AllTileFlags: 1073741825
  - first: {x: -6, y: 9, z: 0}
    second:
      serializedVersion: 2
      m_TileIndex: 50
      m_TileSpriteIndex: 49
      m_TileMatrixIndex: 0
      m_TileColorIndex: 1
      m_TileObjectToInstantiateIndex: 65535
      dummyAlignment: 0
      m_AllTileFlags: 1073741825
  - first: {x: -5, y: 9, z: 0}
    second:
      serializedVersion: 2
      m_TileIndex: 49
      m_TileSpriteIndex: 48
      m_TileMatrixIndex: 0
      m_TileColorIndex: 1
      m_TileObjectToInstantiateIndex: 65535
      dummyAlignment: 0
      m_AllTileFlags: 1073741825
  - first: {x: -4, y: 9, z: 0}
    second:
      serializedVersion: 2
      m_TileIndex: 48
      m_TileSpriteIndex: 47
      m_TileMatrixIndex: 0
      m_TileColorIndex: 1
      m_TileObjectToInstantiateIndex: 65535
      dummyAlignment: 0
      m_AllTileFlags: 1073741825
  - first: {x: -3, y: 9, z: 0}
    second:
      serializedVersion: 2
      m_TileIndex: 47
      m_TileSpriteIndex: 46
      m_TileMatrixIndex: 0
      m_TileColorIndex: 1
      m_TileObjectToInstantiateIndex: 65535
      dummyAlignment: 0
      m_AllTileFlags: 1073741825
  - first: {x: -2, y: 9, z: 0}
    second:
      serializedVersion: 2
      m_TileIndex: 46
      m_TileSpriteIndex: 45
      m_TileMatrixIndex: 0
      m_TileColorIndex: 1
      m_TileObjectToInstantiateIndex: 65535
      dummyAlignment: 0
      m_AllTileFlags: 1073741825
  - first: {x: -1, y: 9, z: 0}
    second:
      serializedVersion: 2
      m_TileIndex: 45
      m_TileSpriteIndex: 44
      m_TileMatrixIndex: 0
      m_TileColorIndex: 1
      m_TileObjectToInstantiateIndex: 65535
      dummyAlignment: 0
      m_AllTileFlags: 1073741825
  - first: {x: 0, y: 9, z: 0}
    second:
      serializedVersion: 2
      m_TileIndex: 44
      m_TileSpriteIndex: 43
      m_TileMatrixIndex: 0
      m_TileColorIndex: 1
      m_TileObjectToInstantiateIndex: 65535
      dummyAlignment: 0
      m_AllTileFlags: 1073741825
  - first: {x: 2, y: 9, z: 0}
    second:
      serializedVersion: 2
      m_TileIndex: 43
      m_TileSpriteIndex: 42
      m_TileMatrixIndex: 0
      m_TileColorIndex: 1
      m_TileObjectToInstantiateIndex: 65535
      dummyAlignment: 0
      m_AllTileFlags: 1073741825
  - first: {x: 3, y: 9, z: 0}
    second:
      serializedVersion: 2
      m_TileIndex: 42
      m_TileSpriteIndex: 41
      m_TileMatrixIndex: 0
      m_TileColorIndex: 1
      m_TileObjectToInstantiateIndex: 65535
      dummyAlignment: 0
      m_AllTileFlags: 1073741825
  - first: {x: 4, y: 9, z: 0}
    second:
      serializedVersion: 2
      m_TileIndex: 41
      m_TileSpriteIndex: 40
      m_TileMatrixIndex: 0
      m_TileColorIndex: 1
      m_TileObjectToInstantiateIndex: 65535
      dummyAlignment: 0
      m_AllTileFlags: 1073741825
  - first: {x: 5, y: 9, z: 0}
    second:
      serializedVersion: 2
      m_TileIndex: 40
      m_TileSpriteIndex: 39
      m_TileMatrixIndex: 0
      m_TileColorIndex: 1
      m_TileObjectToInstantiateIndex: 65535
      dummyAlignment: 0
      m_AllTileFlags: 1073741825
  - first: {x: 6, y: 9, z: 0}
    second:
      serializedVersion: 2
      m_TileIndex: 39
      m_TileSpriteIndex: 38
      m_TileMatrixIndex: 0
      m_TileColorIndex: 1
      m_TileObjectToInstantiateIndex: 65535
      dummyAlignment: 0
      m_AllTileFlags: 1073741825
  - first: {x: 7, y: 9, z: 0}
    second:
      serializedVersion: 2
      m_TileIndex: 38
      m_TileSpriteIndex: 37
      m_TileMatrixIndex: 0
      m_TileColorIndex: 1
      m_TileObjectToInstantiateIndex: 65535
      dummyAlignment: 0
      m_AllTileFlags: 1073741825
  - first: {x: -9, y: 10, z: 0}
    second:
      serializedVersion: 2
      m_TileIndex: 37
      m_TileSpriteIndex: 36
      m_TileMatrixIndex: 0
      m_TileColorIndex: 1
      m_TileObjectToInstantiateIndex: 65535
      dummyAlignment: 0
      m_AllTileFlags: 1073741825
  - first: {x: -8, y: 10, z: 0}
    second:
      serializedVersion: 2
      m_TileIndex: 36
      m_TileSpriteIndex: 35
      m_TileMatrixIndex: 0
      m_TileColorIndex: 1
      m_TileObjectToInstantiateIndex: 65535
      dummyAlignment: 0
      m_AllTileFlags: 1073741825
  - first: {x: -7, y: 10, z: 0}
    second:
      serializedVersion: 2
      m_TileIndex: 35
      m_TileSpriteIndex: 34
      m_TileMatrixIndex: 0
      m_TileColorIndex: 1
      m_TileObjectToInstantiateIndex: 65535
      dummyAlignment: 0
      m_AllTileFlags: 1073741825
  - first: {x: -6, y: 10, z: 0}
    second:
      serializedVersion: 2
      m_TileIndex: 34
      m_TileSpriteIndex: 33
      m_TileMatrixIndex: 0
      m_TileColorIndex: 1
      m_TileObjectToInstantiateIndex: 65535
      dummyAlignment: 0
      m_AllTileFlags: 1073741825
  - first: {x: -5, y: 10, z: 0}
    second:
      serializedVersion: 2
      m_TileIndex: 33
      m_TileSpriteIndex: 32
      m_TileMatrixIndex: 0
      m_TileColorIndex: 1
      m_TileObjectToInstantiateIndex: 65535
      dummyAlignment: 0
      m_AllTileFlags: 1073741825
  - first: {x: 2, y: 10, z: 0}
    second:
      serializedVersion: 2
      m_TileIndex: 32
      m_TileSpriteIndex: 31
      m_TileMatrixIndex: 0
      m_TileColorIndex: 1
      m_TileObjectToInstantiateIndex: 65535
      dummyAlignment: 0
      m_AllTileFlags: 1073741825
  - first: {x: 3, y: 10, z: 0}
    second:
      serializedVersion: 2
      m_TileIndex: 31
      m_TileSpriteIndex: 30
      m_TileMatrixIndex: 0
      m_TileColorIndex: 1
      m_TileObjectToInstantiateIndex: 65535
      dummyAlignment: 0
      m_AllTileFlags: 1073741825
  - first: {x: 4, y: 10, z: 0}
    second:
      serializedVersion: 2
      m_TileIndex: 30
      m_TileSpriteIndex: 29
      m_TileMatrixIndex: 0
      m_TileColorIndex: 1
      m_TileObjectToInstantiateIndex: 65535
      dummyAlignment: 0
      m_AllTileFlags: 1073741825
  - first: {x: 5, y: 10, z: 0}
    second:
      serializedVersion: 2
      m_TileIndex: 29
      m_TileSpriteIndex: 28
      m_TileMatrixIndex: 0
      m_TileColorIndex: 1
      m_TileObjectToInstantiateIndex: 65535
      dummyAlignment: 0
      m_AllTileFlags: 1073741825
  - first: {x: 6, y: 10, z: 0}
    second:
      serializedVersion: 2
      m_TileIndex: 28
      m_TileSpriteIndex: 27
      m_TileMatrixIndex: 0
      m_TileColorIndex: 1
      m_TileObjectToInstantiateIndex: 65535
      dummyAlignment: 0
      m_AllTileFlags: 1073741825
  - first: {x: 7, y: 10, z: 0}
    second:
      serializedVersion: 2
      m_TileIndex: 27
      m_TileSpriteIndex: 26
      m_TileMatrixIndex: 0
      m_TileColorIndex: 1
      m_TileObjectToInstantiateIndex: 65535
      dummyAlignment: 0
      m_AllTileFlags: 1073741825
  - first: {x: 8, y: 10, z: 0}
    second:
      serializedVersion: 2
      m_TileIndex: 26
      m_TileSpriteIndex: 25
      m_TileMatrixIndex: 0
      m_TileColorIndex: 1
      m_TileObjectToInstantiateIndex: 65535
      dummyAlignment: 0
      m_AllTileFlags: 1073741825
  - first: {x: -9, y: 11, z: 0}
    second:
      serializedVersion: 2
      m_TileIndex: 25
      m_TileSpriteIndex: 24
      m_TileMatrixIndex: 0
      m_TileColorIndex: 1
      m_TileObjectToInstantiateIndex: 65535
      dummyAlignment: 0
      m_AllTileFlags: 1073741825
  - first: {x: -8, y: 11, z: 0}
    second:
      serializedVersion: 2
      m_TileIndex: 24
      m_TileSpriteIndex: 23
      m_TileMatrixIndex: 0
      m_TileColorIndex: 1
      m_TileObjectToInstantiateIndex: 65535
      dummyAlignment: 0
      m_AllTileFlags: 1073741825
  - first: {x: -7, y: 11, z: 0}
    second:
      serializedVersion: 2
      m_TileIndex: 23
      m_TileSpriteIndex: 22
      m_TileMatrixIndex: 0
      m_TileColorIndex: 1
      m_TileObjectToInstantiateIndex: 65535
      dummyAlignment: 0
      m_AllTileFlags: 1073741825
  - first: {x: 2, y: 11, z: 0}
    second:
      serializedVersion: 2
      m_TileIndex: 22
      m_TileSpriteIndex: 21
      m_TileMatrixIndex: 0
      m_TileColorIndex: 1
      m_TileObjectToInstantiateIndex: 65535
      dummyAlignment: 0
      m_AllTileFlags: 1073741825
  - first: {x: 3, y: 11, z: 0}
    second:
      serializedVersion: 2
      m_TileIndex: 21
      m_TileSpriteIndex: 20
      m_TileMatrixIndex: 0
      m_TileColorIndex: 1
      m_TileObjectToInstantiateIndex: 65535
      dummyAlignment: 0
      m_AllTileFlags: 1073741825
  - first: {x: 4, y: 11, z: 0}
    second:
      serializedVersion: 2
      m_TileIndex: 20
      m_TileSpriteIndex: 19
      m_TileMatrixIndex: 0
      m_TileColorIndex: 1
      m_TileObjectToInstantiateIndex: 65535
      dummyAlignment: 0
      m_AllTileFlags: 1073741825
  - first: {x: 5, y: 11, z: 0}
    second:
      serializedVersion: 2
      m_TileIndex: 19
      m_TileSpriteIndex: 18
      m_TileMatrixIndex: 0
      m_TileColorIndex: 1
      m_TileObjectToInstantiateIndex: 65535
      dummyAlignment: 0
      m_AllTileFlags: 1073741825
  - first: {x: 6, y: 11, z: 0}
    second:
      serializedVersion: 2
      m_TileIndex: 18
      m_TileSpriteIndex: 17
      m_TileMatrixIndex: 0
      m_TileColorIndex: 1
      m_TileObjectToInstantiateIndex: 65535
      dummyAlignment: 0
      m_AllTileFlags: 1073741825
  - first: {x: 7, y: 11, z: 0}
    second:
      serializedVersion: 2
      m_TileIndex: 17
      m_TileSpriteIndex: 16
      m_TileMatrixIndex: 0
      m_TileColorIndex: 1
      m_TileObjectToInstantiateIndex: 65535
      dummyAlignment: 0
      m_AllTileFlags: 1073741825
  - first: {x: 8, y: 11, z: 0}
    second:
      serializedVersion: 2
      m_TileIndex: 16
      m_TileSpriteIndex: 15
      m_TileMatrixIndex: 0
      m_TileColorIndex: 1
      m_TileObjectToInstantiateIndex: 65535
      dummyAlignment: 0
      m_AllTileFlags: 1073741825
  - first: {x: 3, y: 12, z: 0}
    second:
      serializedVersion: 2
      m_TileIndex: 15
      m_TileSpriteIndex: 14
      m_TileMatrixIndex: 0
      m_TileColorIndex: 1
      m_TileObjectToInstantiateIndex: 65535
      dummyAlignment: 0
      m_AllTileFlags: 1073741825
  - first: {x: 4, y: 12, z: 0}
    second:
      serializedVersion: 2
      m_TileIndex: 14
      m_TileSpriteIndex: 13
      m_TileMatrixIndex: 0
      m_TileColorIndex: 1
      m_TileObjectToInstantiateIndex: 65535
      dummyAlignment: 0
      m_AllTileFlags: 1073741825
  - first: {x: 5, y: 12, z: 0}
    second:
      serializedVersion: 2
      m_TileIndex: 13
      m_TileSpriteIndex: 12
      m_TileMatrixIndex: 0
      m_TileColorIndex: 1
      m_TileObjectToInstantiateIndex: 65535
      dummyAlignment: 0
      m_AllTileFlags: 1073741825
  - first: {x: 6, y: 12, z: 0}
    second:
      serializedVersion: 2
      m_TileIndex: 12
      m_TileSpriteIndex: 11
      m_TileMatrixIndex: 0
      m_TileColorIndex: 1
      m_TileObjectToInstantiateIndex: 65535
      dummyAlignment: 0
      m_AllTileFlags: 1073741825
  - first: {x: 7, y: 12, z: 0}
    second:
      serializedVersion: 2
      m_TileIndex: 11
      m_TileSpriteIndex: 10
      m_TileMatrixIndex: 0
      m_TileColorIndex: 1
      m_TileObjectToInstantiateIndex: 65535
      dummyAlignment: 0
      m_AllTileFlags: 1073741825
  - first: {x: -9, y: 13, z: 0}
    second:
      serializedVersion: 2
      m_TileIndex: 10
      m_TileSpriteIndex: 9
      m_TileMatrixIndex: 0
      m_TileColorIndex: 1
      m_TileObjectToInstantiateIndex: 65535
      dummyAlignment: 0
      m_AllTileFlags: 1073741825
  - first: {x: -8, y: 13, z: 0}
    second:
      serializedVersion: 2
      m_TileIndex: 9
      m_TileSpriteIndex: 8
      m_TileMatrixIndex: 0
      m_TileColorIndex: 1
      m_TileObjectToInstantiateIndex: 65535
      dummyAlignment: 0
      m_AllTileFlags: 1073741825
  - first: {x: -7, y: 13, z: 0}
    second:
      serializedVersion: 2
      m_TileIndex: 8
      m_TileSpriteIndex: 7
      m_TileMatrixIndex: 0
      m_TileColorIndex: 1
      m_TileObjectToInstantiateIndex: 65535
      dummyAlignment: 0
      m_AllTileFlags: 1073741825
  - first: {x: -6, y: 13, z: 0}
    second:
      serializedVersion: 2
      m_TileIndex: 7
      m_TileSpriteIndex: 6
      m_TileMatrixIndex: 0
      m_TileColorIndex: 1
      m_TileObjectToInstantiateIndex: 65535
      dummyAlignment: 0
      m_AllTileFlags: 1073741825
  - first: {x: -5, y: 13, z: 0}
    second:
      serializedVersion: 2
      m_TileIndex: 6
      m_TileSpriteIndex: 5
      m_TileMatrixIndex: 0
      m_TileColorIndex: 1
      m_TileObjectToInstantiateIndex: 65535
      dummyAlignment: 0
      m_AllTileFlags: 1073741825
  - first: {x: -4, y: 13, z: 0}
    second:
      serializedVersion: 2
      m_TileIndex: 5
      m_TileSpriteIndex: 4
      m_TileMatrixIndex: 0
      m_TileColorIndex: 1
      m_TileObjectToInstantiateIndex: 65535
      dummyAlignment: 0
      m_AllTileFlags: 1073741825
  - first: {x: -3, y: 13, z: 0}
    second:
      serializedVersion: 2
      m_TileIndex: 4
      m_TileSpriteIndex: 3
      m_TileMatrixIndex: 0
      m_TileColorIndex: 1
      m_TileObjectToInstantiateIndex: 65535
      dummyAlignment: 0
      m_AllTileFlags: 1073741825
  - first: {x: -1, y: 13, z: 0}
    second:
      serializedVersion: 2
      m_TileIndex: 142
      m_TileSpriteIndex: 128
      m_TileMatrixIndex: 0
      m_TileColorIndex: 1
      m_TileObjectToInstantiateIndex: 65535
      dummyAlignment: 0
      m_AllTileFlags: 1073741826
  - first: {x: 0, y: 13, z: 0}
    second:
      serializedVersion: 2
      m_TileIndex: 3
      m_TileSpriteIndex: 128
      m_TileMatrixIndex: 0
      m_TileColorIndex: 1
      m_TileObjectToInstantiateIndex: 65535
      dummyAlignment: 0
      m_AllTileFlags: 1073741826
  - first: {x: 1, y: 13, z: 0}
    second:
      serializedVersion: 2
      m_TileIndex: 141
      m_TileSpriteIndex: 89
      m_TileMatrixIndex: 0
      m_TileColorIndex: 1
      m_TileObjectToInstantiateIndex: 65535
      dummyAlignment: 0
      m_AllTileFlags: 1073741826
  - first: {x: 4, y: 13, z: 0}
    second:
      serializedVersion: 2
      m_TileIndex: 2
      m_TileSpriteIndex: 2
      m_TileMatrixIndex: 0
      m_TileColorIndex: 1
      m_TileObjectToInstantiateIndex: 65535
      dummyAlignment: 0
      m_AllTileFlags: 1073741825
  - first: {x: 5, y: 13, z: 0}
    second:
      serializedVersion: 2
      m_TileIndex: 1
      m_TileSpriteIndex: 1
      m_TileMatrixIndex: 0
      m_TileColorIndex: 1
      m_TileObjectToInstantiateIndex: 65535
      dummyAlignment: 0
      m_AllTileFlags: 1073741825
  - first: {x: 6, y: 13, z: 0}
    second:
      serializedVersion: 2
      m_TileIndex: 0
      m_TileSpriteIndex: 0
      m_TileMatrixIndex: 0
      m_TileColorIndex: 1
      m_TileObjectToInstantiateIndex: 65535
      dummyAlignment: 0
      m_AllTileFlags: 1073741825
  - first: {x: 1, y: 14, z: 0}
    second:
      serializedVersion: 2
      m_TileIndex: 141
      m_TileSpriteIndex: 88
      m_TileMatrixIndex: 0
      m_TileColorIndex: 1
      m_TileObjectToInstantiateIndex: 65535
      dummyAlignment: 0
      m_AllTileFlags: 1073741826
  m_AnimatedTiles: {}
  m_TileAssetArray:
  - m_RefCount: 1
    m_Data: {fileID: 11400000, guid: 8e96563dfebbc2a40afc7892f2c62ec3, type: 2}
  - m_RefCount: 1
    m_Data: {fileID: 11400000, guid: ea9dc0e6f8896ee4795ca467c1782951, type: 2}
  - m_RefCount: 1
    m_Data: {fileID: 11400000, guid: 583413438cd13e14db3a435b6d26cd6e, type: 2}
  - m_RefCount: 2
    m_Data: {fileID: 11400000, guid: dcc8d66fc2b8ec74bb552083ac8dd5b1, type: 2}
  - m_RefCount: 1
    m_Data: {fileID: 11400000, guid: 86a6e3052ca15674c8eb6a2215864f4f, type: 2}
  - m_RefCount: 1
    m_Data: {fileID: 11400000, guid: 0c506db66c01b7c4fba829eddb32e89c, type: 2}
  - m_RefCount: 1
    m_Data: {fileID: 11400000, guid: 5eb94a15da23d844a97e38aca7056e5b, type: 2}
  - m_RefCount: 1
    m_Data: {fileID: 11400000, guid: 84b649078818558469e7005bad20e90a, type: 2}
  - m_RefCount: 1
    m_Data: {fileID: 11400000, guid: a601c47d8da602947929c8eff642b3c2, type: 2}
  - m_RefCount: 1
    m_Data: {fileID: 11400000, guid: b24c867bfa589404193e21215e36bdf4, type: 2}
  - m_RefCount: 1
    m_Data: {fileID: 11400000, guid: de8a5826554889a4da0df8ad737146bd, type: 2}
  - m_RefCount: 1
    m_Data: {fileID: 11400000, guid: 131a7196d3aed3a48b3bcf36cef3b8d3, type: 2}
  - m_RefCount: 1
    m_Data: {fileID: 11400000, guid: 6e2e6fb603445684e90ad1fcfcb1afb6, type: 2}
  - m_RefCount: 1
    m_Data: {fileID: 11400000, guid: b7a8dd7562c874a41ad575777a458345, type: 2}
  - m_RefCount: 1
    m_Data: {fileID: 11400000, guid: be8a1d5d005e89e4e95b62390a705727, type: 2}
  - m_RefCount: 1
    m_Data: {fileID: 11400000, guid: bbba6dfed13db3e499bcbfa64db4f12f, type: 2}
  - m_RefCount: 1
    m_Data: {fileID: 11400000, guid: e64ad85917f21cd489b758639f81fced, type: 2}
  - m_RefCount: 1
    m_Data: {fileID: 11400000, guid: e638d17597e74594392665efe250de64, type: 2}
  - m_RefCount: 1
    m_Data: {fileID: 11400000, guid: 0474420ca7d5dbb43ac9f435ce642c80, type: 2}
  - m_RefCount: 1
    m_Data: {fileID: 11400000, guid: 76fdd642bd8191347970fe2c4901a355, type: 2}
  - m_RefCount: 1
    m_Data: {fileID: 11400000, guid: 17dd13c08c146d24eaf5ff27d59e98c7, type: 2}
  - m_RefCount: 1
    m_Data: {fileID: 11400000, guid: 9459535e591d9b94ab8c12dacdf1f0ad, type: 2}
  - m_RefCount: 1
    m_Data: {fileID: 11400000, guid: c8d294ee61983904aa53396b8e9e4345, type: 2}
  - m_RefCount: 1
    m_Data: {fileID: 11400000, guid: 1c42e5981a0818a44836470a751f2536, type: 2}
  - m_RefCount: 1
    m_Data: {fileID: 11400000, guid: 04c028bd904085a41bbd7142a5dec1b9, type: 2}
  - m_RefCount: 1
    m_Data: {fileID: 11400000, guid: c7b5b10b86a2da74abcad4b47de624c0, type: 2}
  - m_RefCount: 1
    m_Data: {fileID: 11400000, guid: af8665b075171f94ebfb547898afe3a2, type: 2}
  - m_RefCount: 1
    m_Data: {fileID: 11400000, guid: 19f218d62856dd843af5f8e7e9e78f8d, type: 2}
  - m_RefCount: 1
    m_Data: {fileID: 11400000, guid: 7cad5a460c5fe26418b0bc2c5acbfa09, type: 2}
  - m_RefCount: 1
    m_Data: {fileID: 11400000, guid: 8d39dc103b67d0249a15c88a3d007137, type: 2}
  - m_RefCount: 1
    m_Data: {fileID: 11400000, guid: 0899b59e621f1614c9a61bf214d66bce, type: 2}
  - m_RefCount: 1
    m_Data: {fileID: 11400000, guid: 4b550f237545dd44bb03d44df2323f08, type: 2}
  - m_RefCount: 1
    m_Data: {fileID: 11400000, guid: aca555241c1737c43a12c898a5bd5edd, type: 2}
  - m_RefCount: 1
    m_Data: {fileID: 11400000, guid: d1ee64915134ac8438783ba4504ac2ef, type: 2}
  - m_RefCount: 1
    m_Data: {fileID: 11400000, guid: 3eab29017d9e8374098583c90c4e1915, type: 2}
  - m_RefCount: 1
    m_Data: {fileID: 11400000, guid: 00ce97fa1c66f1348bec54ba0eb0ef38, type: 2}
  - m_RefCount: 1
    m_Data: {fileID: 11400000, guid: f8dc753909d9c9a4f97a316c4101df39, type: 2}
  - m_RefCount: 1
    m_Data: {fileID: 11400000, guid: d2d069a5a1dda0b4d9e37c3994ea9994, type: 2}
  - m_RefCount: 1
    m_Data: {fileID: 11400000, guid: 18900ee87720f2c489caf4b1cbb7c61e, type: 2}
  - m_RefCount: 1
    m_Data: {fileID: 11400000, guid: 597a850fdd0dea34f88fefba5ab3564c, type: 2}
  - m_RefCount: 1
    m_Data: {fileID: 11400000, guid: ffd5de778a7e2d942bfd0548e4c0fc9f, type: 2}
  - m_RefCount: 1
    m_Data: {fileID: 11400000, guid: 2bfe8d231b85bb74eaa6a0680b138f60, type: 2}
  - m_RefCount: 1
    m_Data: {fileID: 11400000, guid: 1430f9228fcc0b842abd340375ff5186, type: 2}
  - m_RefCount: 1
    m_Data: {fileID: 11400000, guid: b5b3020eb7f5d974aa0cbd9bfff186b1, type: 2}
  - m_RefCount: 1
    m_Data: {fileID: 11400000, guid: 242724ae4c2bfaf459b042c60ca2f2f8, type: 2}
  - m_RefCount: 1
    m_Data: {fileID: 11400000, guid: 4c9f0e0d9ae7bbb498acd91cf1f8d087, type: 2}
  - m_RefCount: 1
    m_Data: {fileID: 11400000, guid: 6aa9d0f2e5b9b8044a590e88cd671034, type: 2}
  - m_RefCount: 1
    m_Data: {fileID: 11400000, guid: 4cb886c741bd3b449abc61b9bc10d393, type: 2}
  - m_RefCount: 1
    m_Data: {fileID: 11400000, guid: 6874747082284784abd1884e1af96d99, type: 2}
  - m_RefCount: 1
    m_Data: {fileID: 11400000, guid: eac61d967cd0d9a479877fcc06855d3a, type: 2}
  - m_RefCount: 1
    m_Data: {fileID: 11400000, guid: 1b85e16aff41da0439e03a15339fe13f, type: 2}
  - m_RefCount: 1
    m_Data: {fileID: 11400000, guid: eef5aa2342d3a62428024de707f345d9, type: 2}
  - m_RefCount: 1
    m_Data: {fileID: 11400000, guid: a97eb07cba4c74e499620afae0deee20, type: 2}
  - m_RefCount: 1
    m_Data: {fileID: 11400000, guid: 5fccd7de334fdad4b9aa2f7108a91a41, type: 2}
  - m_RefCount: 1
    m_Data: {fileID: 11400000, guid: f83bd0cdd9a17fd418bcaa73ce1de055, type: 2}
  - m_RefCount: 1
    m_Data: {fileID: 11400000, guid: 0ddf02756e8d76c4bb77710bdc837553, type: 2}
  - m_RefCount: 1
    m_Data: {fileID: 11400000, guid: 34e5eb277f97023469c1ab7ef53fc868, type: 2}
  - m_RefCount: 1
    m_Data: {fileID: 11400000, guid: 8d5256b683eb1ef4cbeb38396e0405c6, type: 2}
  - m_RefCount: 1
    m_Data: {fileID: 11400000, guid: 3a810bcfb2c40144dba77d84f4834599, type: 2}
  - m_RefCount: 1
    m_Data: {fileID: 11400000, guid: 7d9820a0ff7a0224faf779e3dbbfe84f, type: 2}
  - m_RefCount: 1
    m_Data: {fileID: 11400000, guid: 706ebf80517c3aa47bc0b400922c0599, type: 2}
  - m_RefCount: 1
    m_Data: {fileID: 11400000, guid: 06d7db7f5fcd8e14bb2252f1a193d5fa, type: 2}
  - m_RefCount: 1
    m_Data: {fileID: 11400000, guid: 6b59c2adbd6f2a44fbbdda0204089b28, type: 2}
  - m_RefCount: 1
    m_Data: {fileID: 11400000, guid: 10b8f5e9d4fc84643861c06cbf10a40b, type: 2}
  - m_RefCount: 1
    m_Data: {fileID: 11400000, guid: 5d4630149aad7a04b93bfa22b282b79b, type: 2}
  - m_RefCount: 1
    m_Data: {fileID: 11400000, guid: 4c752f41d7752e54585d1605800127bb, type: 2}
  - m_RefCount: 1
    m_Data: {fileID: 11400000, guid: ebf7d3db28b345e41b3d0f97e42cfdc5, type: 2}
  - m_RefCount: 1
    m_Data: {fileID: 11400000, guid: e5a4aaa6fd07c8d4987ecac84ba6d420, type: 2}
  - m_RefCount: 1
    m_Data: {fileID: 11400000, guid: 2d1a83be8059ce1408bf06097f7c5d19, type: 2}
  - m_RefCount: 1
    m_Data: {fileID: 11400000, guid: 1653ba7d3be6e6b46af1ec29a10037bf, type: 2}
  - m_RefCount: 1
    m_Data: {fileID: 11400000, guid: 0f4103341f0da1747a50091496cb3beb, type: 2}
  - m_RefCount: 1
    m_Data: {fileID: 11400000, guid: e9cced8fb6d18494186f6af5461638c5, type: 2}
  - m_RefCount: 1
    m_Data: {fileID: 11400000, guid: cf74e8576cacc40419709341442c5a90, type: 2}
  - m_RefCount: 1
    m_Data: {fileID: 11400000, guid: cfe07cbd8a9772d49b37564282959175, type: 2}
  - m_RefCount: 1
    m_Data: {fileID: 11400000, guid: 4962dde411937cc4a8f22d5d9133f806, type: 2}
  - m_RefCount: 1
    m_Data: {fileID: 11400000, guid: 4063a4c170c4c2240ae8cb1af07b6967, type: 2}
  - m_RefCount: 1
    m_Data: {fileID: 11400000, guid: 4ea5e35fa8689914c8fc88f9861f55a0, type: 2}
  - m_RefCount: 1
    m_Data: {fileID: 11400000, guid: b2f15307e88e13a46b071da19b51ef29, type: 2}
  - m_RefCount: 1
    m_Data: {fileID: 11400000, guid: 6e053c328e82d2740ba2ca990ef20317, type: 2}
  - m_RefCount: 1
    m_Data: {fileID: 11400000, guid: 4fd7d659db3b9eb4f86e7f91889b58ef, type: 2}
  - m_RefCount: 1
    m_Data: {fileID: 11400000, guid: b0eb4a88146209f408cc389dd5790fd1, type: 2}
  - m_RefCount: 1
    m_Data: {fileID: 11400000, guid: 3d212465d87b14742947a09bd8413413, type: 2}
  - m_RefCount: 1
    m_Data: {fileID: 11400000, guid: 33c7e0e91e63e8a4388634e46027f70d, type: 2}
  - m_RefCount: 1
    m_Data: {fileID: 11400000, guid: 47174e4ec02cb7f4290b5050d4762776, type: 2}
  - m_RefCount: 1
    m_Data: {fileID: 11400000, guid: a8aeb88b9c57de948ad2a2bc38117208, type: 2}
  - m_RefCount: 1
    m_Data: {fileID: 11400000, guid: c9e90ee4a0e9b13489cb7c72f481696f, type: 2}
  - m_RefCount: 1
    m_Data: {fileID: 11400000, guid: 7ab141b716927f445be939adea8257e4, type: 2}
  - m_RefCount: 1
    m_Data: {fileID: 11400000, guid: 49733286116594f4fbbb756b61f0768e, type: 2}
  - m_RefCount: 1
    m_Data: {fileID: 11400000, guid: c1d09bb95f1838a43b1ae41a518c102c, type: 2}
  - m_RefCount: 1
    m_Data: {fileID: 11400000, guid: 7280d9dfb5f99854fb7f93a4e6dc634a, type: 2}
  - m_RefCount: 1
    m_Data: {fileID: 11400000, guid: 62d7e4c419247a0488058a9ce33224ab, type: 2}
  - m_RefCount: 1
    m_Data: {fileID: 11400000, guid: 7141ad75a8eafd748a736c3d223dbd44, type: 2}
  - m_RefCount: 1
    m_Data: {fileID: 11400000, guid: a3a885bfbbed6bd4aa168a49b25d1a59, type: 2}
  - m_RefCount: 1
    m_Data: {fileID: 11400000, guid: 94d21b56c59bff448adea74e938e7d01, type: 2}
  - m_RefCount: 1
    m_Data: {fileID: 11400000, guid: 18ce8f0eb45345b42ba9b29bba0f36fc, type: 2}
  - m_RefCount: 1
    m_Data: {fileID: 11400000, guid: c73e77367b5eb7a459f8738357c83c8e, type: 2}
  - m_RefCount: 1
    m_Data: {fileID: 11400000, guid: e5c258860ebaeb543ae0eb74753df8c6, type: 2}
  - m_RefCount: 1
    m_Data: {fileID: 11400000, guid: 1802c9f64c323b343b4792bc780754f4, type: 2}
  - m_RefCount: 1
    m_Data: {fileID: 11400000, guid: 402566d1237c03b43b367d1e158a2840, type: 2}
  - m_RefCount: 1
    m_Data: {fileID: 11400000, guid: 1c016b9c4559b2a48a92effa687f06c8, type: 2}
  - m_RefCount: 1
    m_Data: {fileID: 11400000, guid: d901526fa285ef343b65e362e5d839c4, type: 2}
  - m_RefCount: 1
    m_Data: {fileID: 11400000, guid: 412e915b0b0df18479d9c58bd5500df1, type: 2}
  - m_RefCount: 1
    m_Data: {fileID: 11400000, guid: 59ab88e928a9f1448a23e14bc7ed3347, type: 2}
  - m_RefCount: 1
    m_Data: {fileID: 11400000, guid: 049446f570fe5e441afea02946909d05, type: 2}
  - m_RefCount: 1
    m_Data: {fileID: 11400000, guid: 8db6624c1d533b6499e65bb39f1fdd75, type: 2}
  - m_RefCount: 1
    m_Data: {fileID: 11400000, guid: ee69d449b4d43ad47b6331383f3fd2bd, type: 2}
  - m_RefCount: 1
    m_Data: {fileID: 11400000, guid: 13357f78f5f42ea449eea70c4075b766, type: 2}
  - m_RefCount: 1
    m_Data: {fileID: 11400000, guid: ffd89280a4c1f1c45b370325768d1323, type: 2}
  - m_RefCount: 1
    m_Data: {fileID: 11400000, guid: 3e5d2c379945bf84da34231591c4b961, type: 2}
  - m_RefCount: 1
    m_Data: {fileID: 11400000, guid: d13dc6fa673e07d4896e048e063b92b7, type: 2}
  - m_RefCount: 1
    m_Data: {fileID: 11400000, guid: 9d0725cb10ddc9b4695e0a8c23d809c9, type: 2}
  - m_RefCount: 1
    m_Data: {fileID: 11400000, guid: 3cbd3d9a5c1c08f4b8efa586d707809e, type: 2}
  - m_RefCount: 1
    m_Data: {fileID: 11400000, guid: c544f97f83c8b52449d6aa17e76f4bfb, type: 2}
  - m_RefCount: 1
    m_Data: {fileID: 11400000, guid: 03f7917a61214d941b687fc80f2c0d17, type: 2}
  - m_RefCount: 1
    m_Data: {fileID: 11400000, guid: 2384942537f6e184fa3a511d1cf12d0e, type: 2}
  - m_RefCount: 1
    m_Data: {fileID: 11400000, guid: fef45a4a03ebf3e4aa0273e0648bf3bc, type: 2}
  - m_RefCount: 1
    m_Data: {fileID: 11400000, guid: 05d622368dc421a408df40653cffa29f, type: 2}
  - m_RefCount: 1
    m_Data: {fileID: 11400000, guid: fb136f72b1cb0e24eabcabc593d664b5, type: 2}
  - m_RefCount: 1
    m_Data: {fileID: 11400000, guid: 532329a3a91c96c4682a07f150ebd4b4, type: 2}
  - m_RefCount: 1
    m_Data: {fileID: 11400000, guid: c8dc60020495cf64e88882a5cb37140a, type: 2}
  - m_RefCount: 1
    m_Data: {fileID: 11400000, guid: 2060146e46ed2954581ca13abb17fc97, type: 2}
  - m_RefCount: 1
    m_Data: {fileID: 11400000, guid: eba6897449ff51b4383e73eb18ea220c, type: 2}
  - m_RefCount: 1
    m_Data: {fileID: 11400000, guid: c14ef0a12075a204f8768ca356d2ab9e, type: 2}
  - m_RefCount: 1
    m_Data: {fileID: 11400000, guid: b28567a4891958e408df1b669f247304, type: 2}
  - m_RefCount: 1
    m_Data: {fileID: 11400000, guid: 7c33f27ef07d35e4091acb3bc704f9cb, type: 2}
  - m_RefCount: 1
    m_Data: {fileID: 11400000, guid: 0dc33066719afe340b1e69c88d161704, type: 2}
  - m_RefCount: 1
    m_Data: {fileID: 11400000, guid: 25cb7e893e5472e479e910f5d0141051, type: 2}
  - m_RefCount: 1
    m_Data: {fileID: 11400000, guid: 0dfb98c10c9bbcc4ba398a7f37e369c3, type: 2}
  - m_RefCount: 1
    m_Data: {fileID: 11400000, guid: 2e1a1a5207f93214d870d6ddf78ca482, type: 2}
  - m_RefCount: 1
    m_Data: {fileID: 11400000, guid: fa41ca975e894c84c9772a55005d8bb9, type: 2}
  - m_RefCount: 1
    m_Data: {fileID: 11400000, guid: 786429133d76ded4da5e6372b67d6bf3, type: 2}
  - m_RefCount: 1
    m_Data: {fileID: 11400000, guid: a5ae0a4cdc25e574e9572e5a158a2d06, type: 2}
  - m_RefCount: 1
    m_Data: {fileID: 11400000, guid: fbc1a0c867875f24a86c0cade2b2a9a8, type: 2}
  - m_RefCount: 1
    m_Data: {fileID: 11400000, guid: 9a7381d9e837a8140ac4420429280b38, type: 2}
  - m_RefCount: 1
    m_Data: {fileID: 11400000, guid: 8c5a7a1140a14604e949d28c9347836d, type: 2}
  - m_RefCount: 1
    m_Data: {fileID: 11400000, guid: a9d8ce6f9ac7684419c996482c346ad3, type: 2}
  - m_RefCount: 1
    m_Data: {fileID: 11400000, guid: b958f04ba790e0643a52778be1409d0c, type: 2}
  - m_RefCount: 1
    m_Data: {fileID: 11400000, guid: c0930b2070d91654ca71822e1117174e, type: 2}
  - m_RefCount: 1
    m_Data: {fileID: 11400000, guid: 3a9843d2c12c0f34e9b0920840a59ffa, type: 2}
  - m_RefCount: 1
    m_Data: {fileID: 11400000, guid: 21bd225ffe73de542a8bc7a25cae6c0e, type: 2}
  - m_RefCount: 1
    m_Data: {fileID: 11400000, guid: fc2e88d66629f3d488cfcf8277761cb0, type: 2}
  - m_RefCount: 2
    m_Data: {fileID: 11400000, guid: 4e201711ba4f3d1469b5c88084eeb32f, type: 2}
  - m_RefCount: 1
    m_Data: {fileID: 11400000, guid: 0e3fba604f4d853488801e9582e245bb, type: 2}
  m_TileSpriteArray:
  - m_RefCount: 1
    m_Data: {fileID: -781294158744790408, guid: 09b575fb32c37cb4c8fa89c68c503507, type: 3}
  - m_RefCount: 1
    m_Data: {fileID: -7775419718026629507, guid: 09b575fb32c37cb4c8fa89c68c503507, type: 3}
  - m_RefCount: 1
    m_Data: {fileID: 8233071653059976297, guid: 09b575fb32c37cb4c8fa89c68c503507, type: 3}
  - m_RefCount: 1
    m_Data: {fileID: -396035294860175646, guid: 09b575fb32c37cb4c8fa89c68c503507, type: 3}
  - m_RefCount: 1
    m_Data: {fileID: 7477116942032994148, guid: 09b575fb32c37cb4c8fa89c68c503507, type: 3}
  - m_RefCount: 1
    m_Data: {fileID: -4815885190406460031, guid: 09b575fb32c37cb4c8fa89c68c503507, type: 3}
  - m_RefCount: 1
    m_Data: {fileID: -3627264120405484348, guid: 09b575fb32c37cb4c8fa89c68c503507, type: 3}
  - m_RefCount: 1
    m_Data: {fileID: -7486092956772349302, guid: 09b575fb32c37cb4c8fa89c68c503507, type: 3}
  - m_RefCount: 1
    m_Data: {fileID: 6007627129536956325, guid: 09b575fb32c37cb4c8fa89c68c503507, type: 3}
  - m_RefCount: 1
    m_Data: {fileID: 5663061954668274717, guid: 09b575fb32c37cb4c8fa89c68c503507, type: 3}
  - m_RefCount: 1
    m_Data: {fileID: 11442893378838041, guid: 09b575fb32c37cb4c8fa89c68c503507, type: 3}
  - m_RefCount: 1
    m_Data: {fileID: -1762573714345474896, guid: 09b575fb32c37cb4c8fa89c68c503507, type: 3}
  - m_RefCount: 1
    m_Data: {fileID: 8642771837104280003, guid: 09b575fb32c37cb4c8fa89c68c503507, type: 3}
  - m_RefCount: 1
    m_Data: {fileID: -6985117363303071740, guid: 09b575fb32c37cb4c8fa89c68c503507, type: 3}
  - m_RefCount: 1
    m_Data: {fileID: 9061651696941551919, guid: 09b575fb32c37cb4c8fa89c68c503507, type: 3}
  - m_RefCount: 1
    m_Data: {fileID: -6923900727490736670, guid: 09b575fb32c37cb4c8fa89c68c503507, type: 3}
  - m_RefCount: 1
    m_Data: {fileID: -538331831730588137, guid: 09b575fb32c37cb4c8fa89c68c503507, type: 3}
  - m_RefCount: 1
    m_Data: {fileID: -1385786070971223102, guid: 09b575fb32c37cb4c8fa89c68c503507, type: 3}
  - m_RefCount: 1
    m_Data: {fileID: 6116080786932476827, guid: 09b575fb32c37cb4c8fa89c68c503507, type: 3}
  - m_RefCount: 1
    m_Data: {fileID: 8758155216525550727, guid: 09b575fb32c37cb4c8fa89c68c503507, type: 3}
  - m_RefCount: 1
    m_Data: {fileID: 5778961287088506303, guid: 09b575fb32c37cb4c8fa89c68c503507, type: 3}
  - m_RefCount: 1
    m_Data: {fileID: 3985221016008397036, guid: 09b575fb32c37cb4c8fa89c68c503507, type: 3}
  - m_RefCount: 1
    m_Data: {fileID: -3642208251427772964, guid: 09b575fb32c37cb4c8fa89c68c503507, type: 3}
  - m_RefCount: 1
    m_Data: {fileID: -2426843357703420916, guid: 09b575fb32c37cb4c8fa89c68c503507, type: 3}
  - m_RefCount: 1
    m_Data: {fileID: -317771678647371661, guid: 09b575fb32c37cb4c8fa89c68c503507, type: 3}
  - m_RefCount: 1
    m_Data: {fileID: -1518774645772049220, guid: 09b575fb32c37cb4c8fa89c68c503507, type: 3}
  - m_RefCount: 1
    m_Data: {fileID: 3048538982666575687, guid: 09b575fb32c37cb4c8fa89c68c503507, type: 3}
  - m_RefCount: 1
    m_Data: {fileID: -6157781805458569218, guid: 09b575fb32c37cb4c8fa89c68c503507, type: 3}
  - m_RefCount: 1
    m_Data: {fileID: -6468910726198660926, guid: 09b575fb32c37cb4c8fa89c68c503507, type: 3}
  - m_RefCount: 1
    m_Data: {fileID: 5018706250341604807, guid: 09b575fb32c37cb4c8fa89c68c503507, type: 3}
  - m_RefCount: 1
    m_Data: {fileID: 1237908169197521079, guid: 09b575fb32c37cb4c8fa89c68c503507, type: 3}
  - m_RefCount: 1
    m_Data: {fileID: -7967309640338825673, guid: 09b575fb32c37cb4c8fa89c68c503507, type: 3}
  - m_RefCount: 1
    m_Data: {fileID: 4021183171127385890, guid: 09b575fb32c37cb4c8fa89c68c503507, type: 3}
  - m_RefCount: 1
    m_Data: {fileID: -4827537604736492380, guid: 09b575fb32c37cb4c8fa89c68c503507, type: 3}
  - m_RefCount: 1
    m_Data: {fileID: -4272949958406870782, guid: 09b575fb32c37cb4c8fa89c68c503507, type: 3}
  - m_RefCount: 1
    m_Data: {fileID: -5587653796134901919, guid: 09b575fb32c37cb4c8fa89c68c503507, type: 3}
  - m_RefCount: 1
    m_Data: {fileID: 5043307788359985916, guid: 09b575fb32c37cb4c8fa89c68c503507, type: 3}
  - m_RefCount: 1
    m_Data: {fileID: 293392773991598977, guid: 09b575fb32c37cb4c8fa89c68c503507, type: 3}
  - m_RefCount: 1
    m_Data: {fileID: 9192141375248400463, guid: 09b575fb32c37cb4c8fa89c68c503507, type: 3}
  - m_RefCount: 1
    m_Data: {fileID: 3885819281616729284, guid: 09b575fb32c37cb4c8fa89c68c503507, type: 3}
  - m_RefCount: 1
    m_Data: {fileID: -5016527918528981960, guid: 09b575fb32c37cb4c8fa89c68c503507, type: 3}
  - m_RefCount: 1
    m_Data: {fileID: -6831599063569703212, guid: 09b575fb32c37cb4c8fa89c68c503507, type: 3}
  - m_RefCount: 1
    m_Data: {fileID: 6732870910531023, guid: 09b575fb32c37cb4c8fa89c68c503507, type: 3}
  - m_RefCount: 1
    m_Data: {fileID: -4116040823106012581, guid: 09b575fb32c37cb4c8fa89c68c503507, type: 3}
  - m_RefCount: 1
    m_Data: {fileID: -6017339223957375553, guid: 09b575fb32c37cb4c8fa89c68c503507, type: 3}
  - m_RefCount: 1
    m_Data: {fileID: 5547708042039842948, guid: 09b575fb32c37cb4c8fa89c68c503507, type: 3}
  - m_RefCount: 1
    m_Data: {fileID: 576860350140093190, guid: 09b575fb32c37cb4c8fa89c68c503507, type: 3}
  - m_RefCount: 1
    m_Data: {fileID: -1702772467812443111, guid: 09b575fb32c37cb4c8fa89c68c503507, type: 3}
  - m_RefCount: 1
    m_Data: {fileID: 7654806567737475841, guid: 09b575fb32c37cb4c8fa89c68c503507, type: 3}
  - m_RefCount: 1
    m_Data: {fileID: -6205172343615221245, guid: 09b575fb32c37cb4c8fa89c68c503507, type: 3}
  - m_RefCount: 1
    m_Data: {fileID: 8621815960616643281, guid: 09b575fb32c37cb4c8fa89c68c503507, type: 3}
  - m_RefCount: 1
    m_Data: {fileID: -7131273655155896711, guid: 09b575fb32c37cb4c8fa89c68c503507, type: 3}
  - m_RefCount: 1
    m_Data: {fileID: -3697150339598545061, guid: 09b575fb32c37cb4c8fa89c68c503507, type: 3}
  - m_RefCount: 1
    m_Data: {fileID: 2204049225861295520, guid: 09b575fb32c37cb4c8fa89c68c503507, type: 3}
  - m_RefCount: 1
    m_Data: {fileID: 6264988462522759893, guid: 09b575fb32c37cb4c8fa89c68c503507, type: 3}
  - m_RefCount: 1
    m_Data: {fileID: 6418657867545673408, guid: 09b575fb32c37cb4c8fa89c68c503507, type: 3}
  - m_RefCount: 1
    m_Data: {fileID: -5265849548139384413, guid: 09b575fb32c37cb4c8fa89c68c503507, type: 3}
  - m_RefCount: 1
    m_Data: {fileID: 1077660200836561826, guid: 09b575fb32c37cb4c8fa89c68c503507, type: 3}
  - m_RefCount: 1
    m_Data: {fileID: 1053245576194407766, guid: 09b575fb32c37cb4c8fa89c68c503507, type: 3}
  - m_RefCount: 1
    m_Data: {fileID: 5224892034047083157, guid: 09b575fb32c37cb4c8fa89c68c503507, type: 3}
  - m_RefCount: 1
    m_Data: {fileID: -5726643437316625391, guid: 09b575fb32c37cb4c8fa89c68c503507, type: 3}
  - m_RefCount: 1
    m_Data: {fileID: 1510392478064077718, guid: 09b575fb32c37cb4c8fa89c68c503507, type: 3}
  - m_RefCount: 1
    m_Data: {fileID: 2177024245305386223, guid: 09b575fb32c37cb4c8fa89c68c503507, type: 3}
  - m_RefCount: 1
    m_Data: {fileID: -6748938332277025590, guid: 09b575fb32c37cb4c8fa89c68c503507, type: 3}
  - m_RefCount: 1
    m_Data: {fileID: -4909924010071155561, guid: 09b575fb32c37cb4c8fa89c68c503507, type: 3}
  - m_RefCount: 1
    m_Data: {fileID: 3461855256792236426, guid: 09b575fb32c37cb4c8fa89c68c503507, type: 3}
  - m_RefCount: 1
    m_Data: {fileID: 2815510966112240897, guid: 09b575fb32c37cb4c8fa89c68c503507, type: 3}
  - m_RefCount: 1
    m_Data: {fileID: -1978880106863730396, guid: 09b575fb32c37cb4c8fa89c68c503507, type: 3}
  - m_RefCount: 1
    m_Data: {fileID: -9128652258105010429, guid: 09b575fb32c37cb4c8fa89c68c503507, type: 3}
  - m_RefCount: 1
    m_Data: {fileID: 8436483236309373761, guid: 09b575fb32c37cb4c8fa89c68c503507, type: 3}
  - m_RefCount: 1
    m_Data: {fileID: -440094530379634619, guid: 09b575fb32c37cb4c8fa89c68c503507, type: 3}
  - m_RefCount: 1
    m_Data: {fileID: 4539572432158512276, guid: 09b575fb32c37cb4c8fa89c68c503507, type: 3}
  - m_RefCount: 1
    m_Data: {fileID: -1111467040747940836, guid: 09b575fb32c37cb4c8fa89c68c503507, type: 3}
  - m_RefCount: 1
    m_Data: {fileID: 54813008368543375, guid: 09b575fb32c37cb4c8fa89c68c503507, type: 3}
  - m_RefCount: 1
    m_Data: {fileID: 974969132830988049, guid: 09b575fb32c37cb4c8fa89c68c503507, type: 3}
  - m_RefCount: 1
    m_Data: {fileID: -133517962813326697, guid: 09b575fb32c37cb4c8fa89c68c503507, type: 3}
  - m_RefCount: 1
    m_Data: {fileID: 3679769539610414968, guid: 09b575fb32c37cb4c8fa89c68c503507, type: 3}
  - m_RefCount: 1
    m_Data: {fileID: 1946776270529680156, guid: 09b575fb32c37cb4c8fa89c68c503507, type: 3}
  - m_RefCount: 1
    m_Data: {fileID: -5859045247806993216, guid: 09b575fb32c37cb4c8fa89c68c503507, type: 3}
  - m_RefCount: 1
    m_Data: {fileID: -1040992118310419130, guid: 09b575fb32c37cb4c8fa89c68c503507, type: 3}
  - m_RefCount: 1
    m_Data: {fileID: 2160675205206706675, guid: 09b575fb32c37cb4c8fa89c68c503507, type: 3}
  - m_RefCount: 1
    m_Data: {fileID: -8673441916583476125, guid: 09b575fb32c37cb4c8fa89c68c503507, type: 3}
  - m_RefCount: 1
    m_Data: {fileID: -4605163527387846987, guid: 09b575fb32c37cb4c8fa89c68c503507, type: 3}
  - m_RefCount: 1
    m_Data: {fileID: -912226708761013127, guid: 09b575fb32c37cb4c8fa89c68c503507, type: 3}
  - m_RefCount: 1
    m_Data: {fileID: -3026403903459387518, guid: 09b575fb32c37cb4c8fa89c68c503507, type: 3}
  - m_RefCount: 1
    m_Data: {fileID: -9167755149240453841, guid: 09b575fb32c37cb4c8fa89c68c503507, type: 3}
  - m_RefCount: 1
    m_Data: {fileID: 3608026245190458011, guid: 09b575fb32c37cb4c8fa89c68c503507, type: 3}
  - m_RefCount: 1
    m_Data: {fileID: 6276069379633589520, guid: 09b575fb32c37cb4c8fa89c68c503507, type: 3}
  - m_RefCount: 2
    m_Data: {fileID: 1307626347214929657, guid: 09b575fb32c37cb4c8fa89c68c503507, type: 3}
  - m_RefCount: 2
    m_Data: {fileID: 5437897656927332739, guid: 09b575fb32c37cb4c8fa89c68c503507, type: 3}
  - m_RefCount: 1
    m_Data: {fileID: -1691220034148343436, guid: 09b575fb32c37cb4c8fa89c68c503507, type: 3}
  - m_RefCount: 1
    m_Data: {fileID: 4330230722670678443, guid: 09b575fb32c37cb4c8fa89c68c503507, type: 3}
  - m_RefCount: 1
    m_Data: {fileID: 5991473849112003203, guid: 09b575fb32c37cb4c8fa89c68c503507, type: 3}
  - m_RefCount: 1
    m_Data: {fileID: 1372472711436484874, guid: 09b575fb32c37cb4c8fa89c68c503507, type: 3}
  - m_RefCount: 1
    m_Data: {fileID: 7520313796697013927, guid: 09b575fb32c37cb4c8fa89c68c503507, type: 3}
  - m_RefCount: 1
    m_Data: {fileID: -2927467422400913361, guid: 09b575fb32c37cb4c8fa89c68c503507, type: 3}
  - m_RefCount: 1
    m_Data: {fileID: -3988596780175509632, guid: 09b575fb32c37cb4c8fa89c68c503507, type: 3}
  - m_RefCount: 1
    m_Data: {fileID: -4069433135438937170, guid: 09b575fb32c37cb4c8fa89c68c503507, type: 3}
  - m_RefCount: 1
    m_Data: {fileID: -449521129324896115, guid: 09b575fb32c37cb4c8fa89c68c503507, type: 3}
  - m_RefCount: 1
    m_Data: {fileID: 4072258924830223602, guid: 09b575fb32c37cb4c8fa89c68c503507, type: 3}
  - m_RefCount: 1
    m_Data: {fileID: 5679421691457111198, guid: 09b575fb32c37cb4c8fa89c68c503507, type: 3}
  - m_RefCount: 1
    m_Data: {fileID: -1824318353210508716, guid: 09b575fb32c37cb4c8fa89c68c503507, type: 3}
  - m_RefCount: 1
    m_Data: {fileID: 4060546897201354903, guid: 09b575fb32c37cb4c8fa89c68c503507, type: 3}
  - m_RefCount: 1
    m_Data: {fileID: 26675975723062386, guid: 09b575fb32c37cb4c8fa89c68c503507, type: 3}
  - m_RefCount: 1
    m_Data: {fileID: 4676232042555661266, guid: 09b575fb32c37cb4c8fa89c68c503507, type: 3}
  - m_RefCount: 1
    m_Data: {fileID: 2734534193476647528, guid: 09b575fb32c37cb4c8fa89c68c503507, type: 3}
  - m_RefCount: 1
    m_Data: {fileID: -798795321885504356, guid: 09b575fb32c37cb4c8fa89c68c503507, type: 3}
  - m_RefCount: 1
    m_Data: {fileID: -2209401061123471698, guid: 09b575fb32c37cb4c8fa89c68c503507, type: 3}
  - m_RefCount: 1
    m_Data: {fileID: 1018328791618719094, guid: 09b575fb32c37cb4c8fa89c68c503507, type: 3}
  - m_RefCount: 1
    m_Data: {fileID: 6731733094262721628, guid: 09b575fb32c37cb4c8fa89c68c503507, type: 3}
  - m_RefCount: 1
    m_Data: {fileID: 64046951760991985, guid: 09b575fb32c37cb4c8fa89c68c503507, type: 3}
  - m_RefCount: 1
    m_Data: {fileID: 1593471797593777602, guid: 09b575fb32c37cb4c8fa89c68c503507, type: 3}
  - m_RefCount: 1
    m_Data: {fileID: -2637164433561087041, guid: 09b575fb32c37cb4c8fa89c68c503507, type: 3}
  - m_RefCount: 1
    m_Data: {fileID: -1012056433526176113, guid: 09b575fb32c37cb4c8fa89c68c503507, type: 3}
  - m_RefCount: 1
    m_Data: {fileID: 8428129474414255811, guid: 09b575fb32c37cb4c8fa89c68c503507, type: 3}
  - m_RefCount: 1
    m_Data: {fileID: -6448477584000896110, guid: 09b575fb32c37cb4c8fa89c68c503507, type: 3}
  - m_RefCount: 1
    m_Data: {fileID: 5906929534726048222, guid: 09b575fb32c37cb4c8fa89c68c503507, type: 3}
  - m_RefCount: 1
    m_Data: {fileID: -7521506733355556346, guid: 09b575fb32c37cb4c8fa89c68c503507, type: 3}
  - m_RefCount: 1
    m_Data: {fileID: -362684925555704359, guid: 09b575fb32c37cb4c8fa89c68c503507, type: 3}
  - m_RefCount: 1
    m_Data: {fileID: -6646765574518339977, guid: 09b575fb32c37cb4c8fa89c68c503507, type: 3}
  - m_RefCount: 1
    m_Data: {fileID: -9178284988810271814, guid: 09b575fb32c37cb4c8fa89c68c503507, type: 3}
  - m_RefCount: 1
    m_Data: {fileID: -2936289823458937912, guid: 09b575fb32c37cb4c8fa89c68c503507, type: 3}
  - m_RefCount: 1
    m_Data: {fileID: 7365494074633768783, guid: 09b575fb32c37cb4c8fa89c68c503507, type: 3}
  - m_RefCount: 1
    m_Data: {fileID: 6222405554938725553, guid: 09b575fb32c37cb4c8fa89c68c503507, type: 3}
  - m_RefCount: 1
    m_Data: {fileID: -4680151985043211058, guid: 09b575fb32c37cb4c8fa89c68c503507, type: 3}
  - m_RefCount: 1
    m_Data: {fileID: 6187717847525548743, guid: 09b575fb32c37cb4c8fa89c68c503507, type: 3}
  - m_RefCount: 1
    m_Data: {fileID: -3777550615242853001, guid: 09b575fb32c37cb4c8fa89c68c503507, type: 3}
  - m_RefCount: 1
    m_Data: {fileID: -1807440466647841244, guid: 09b575fb32c37cb4c8fa89c68c503507, type: 3}
  - m_RefCount: 4
    m_Data: {fileID: -5784052603835726715, guid: 09b575fb32c37cb4c8fa89c68c503507, type: 3}
  - m_RefCount: 1
    m_Data: {fileID: -2350811187745343328, guid: 09b575fb32c37cb4c8fa89c68c503507, type: 3}
  - m_RefCount: 1
    m_Data: {fileID: -71973271898396677, guid: 09b575fb32c37cb4c8fa89c68c503507, type: 3}
  - m_RefCount: 1
    m_Data: {fileID: -872220218674159764, guid: 09b575fb32c37cb4c8fa89c68c503507, type: 3}
  - m_RefCount: 1
    m_Data: {fileID: -4473804774917083361, guid: 09b575fb32c37cb4c8fa89c68c503507, type: 3}
  - m_RefCount: 1
    m_Data: {fileID: -98240499126831795, guid: 09b575fb32c37cb4c8fa89c68c503507, type: 3}
  - m_RefCount: 1
    m_Data: {fileID: 8751849822796938245, guid: 09b575fb32c37cb4c8fa89c68c503507, type: 3}
  - m_RefCount: 1
    m_Data: {fileID: -1505867770673229095, guid: 09b575fb32c37cb4c8fa89c68c503507, type: 3}
  - m_RefCount: 1
    m_Data: {fileID: -4436189772315592880, guid: 09b575fb32c37cb4c8fa89c68c503507, type: 3}
  - m_RefCount: 1
    m_Data: {fileID: -8481637368229455236, guid: 09b575fb32c37cb4c8fa89c68c503507, type: 3}
  - m_RefCount: 2
    m_Data: {fileID: -2968257392148234736, guid: 09b575fb32c37cb4c8fa89c68c503507, type: 3}
  m_TileMatrixArray:
  - m_RefCount: 144
    m_Data:
      e00: 1
      e01: 0
      e02: 0
      e03: 0
      e10: 0
      e11: 1
      e12: 0
      e13: 0
      e20: 0
      e21: 0
      e22: 1
      e23: 0
      e30: 0
      e31: 0
      e32: 0
      e33: 1
  - m_RefCount: 1
    m_Data:
      e00: -1
      e01: -0
      e02: -0.00000008742278
      e03: 0
      e10: 0
      e11: -1
      e12: 0
      e13: 0
      e20: 0.00000008742278
      e21: -0
      e22: -1
      e23: 0
      e30: 0
      e31: 0
      e32: 0
      e33: 1
  m_TileColorArray:
  - m_RefCount: 0
    m_Data: {r: 7.445932e-25, g: 7.445932e-25, b: 7.445932e-25, a: 7.445932e-25}
  - m_RefCount: 145
    m_Data: {r: 1, g: 1, b: 1, a: 1}
  m_TileObjectToInstantiateArray:
  - m_RefCount: 0
    m_Data: {fileID: 0}
  m_AnimationFrameRate: 1
  m_Color: {r: 1, g: 1, b: 1, a: 1}
  m_Origin: {x: -16, y: -17, z: 0}
  m_Size: {x: 28, y: 39, z: 1}
  m_TileAnchor: {x: 0.5, y: 0.5, z: 0}
  m_TileOrientation: 0
  m_TileOrientationMatrix:
    e00: 1
    e01: 0
    e02: 0
    e03: 0
    e10: 0
    e11: 1
    e12: 0
    e13: 0
    e20: 0
    e21: 0
    e22: 1
    e23: 0
    e30: 0
    e31: 0
    e32: 0
    e33: 1
--- !u!483693784 &4685082894818871917
TilemapRenderer:
  m_ObjectHideFlags: 0
  m_CorrespondingSourceObject: {fileID: 0}
  m_PrefabInstance: {fileID: 0}
  m_PrefabAsset: {fileID: 0}
  m_GameObject: {fileID: 7314428071861941466}
  m_Enabled: 1
  m_CastShadows: 0
  m_ReceiveShadows: 0
  m_DynamicOccludee: 0
  m_StaticShadowCaster: 0
  m_MotionVectors: 1
  m_LightProbeUsage: 0
  m_ReflectionProbeUsage: 0
  m_RayTracingMode: 0
  m_RayTraceProcedural: 0
  m_RenderingLayerMask: 1
  m_RendererPriority: 0
  m_Materials:
  - {fileID: 2100000, guid: a97c105638bdf8b4a8650670310a4cd3, type: 2}
  m_StaticBatchInfo:
    firstSubMesh: 0
    subMeshCount: 0
  m_StaticBatchRoot: {fileID: 0}
  m_ProbeAnchor: {fileID: 0}
  m_LightProbeVolumeOverride: {fileID: 0}
  m_ScaleInLightmap: 1
  m_ReceiveGI: 1
  m_PreserveUVs: 0
  m_IgnoreNormalsForChartDetection: 0
  m_ImportantGI: 0
  m_StitchLightmapSeams: 1
  m_SelectedEditorRenderState: 0
  m_MinimumChartSize: 4
  m_AutoUVMaxDistance: 0.5
  m_AutoUVMaxAngle: 89
  m_LightmapParameters: {fileID: 0}
  m_SortingLayerID: 0
  m_SortingLayer: 0
  m_SortingOrder: 0
  m_ChunkSize: {x: 32, y: 32, z: 32}
  m_ChunkCullingBounds: {x: 0, y: 0, z: 0}
  m_MaxChunkCount: 16
  m_MaxFrameAge: 16
  m_SortOrder: 0
  m_Mode: 0
  m_DetectChunkCullingBounds: 0
  m_MaskInteraction: 0
--- !u!114 &2998567697112000843
MonoBehaviour:
  m_ObjectHideFlags: 0
  m_CorrespondingSourceObject: {fileID: 0}
  m_PrefabInstance: {fileID: 0}
  m_PrefabAsset: {fileID: 0}
  m_GameObject: {fileID: 0}
  m_Enabled: 1
  m_EditorHideFlags: 0
  m_Script: {fileID: 12395, guid: 0000000000000000e000000000000000, type: 0}
  m_Name: Palette Settings
  m_EditorClassIdentifier: 
  cellSizing: 0
  m_TransparencySortMode: 0
  m_TransparencySortAxis: {x: 0, y: 0, z: 1}
